{
  "3XBIT": "3xbit",
  "55 Global Markets": "55-global-markets",
  "ABCC": "abcc",
  "ACX": "acx",
  "AEX": "aex",
  "ANXPro": "anxpro",
  "AidosMarket": "aidosmarket",
  "AirSwap": "airswap",
  "Allbit": "allbit",
  "Allcoin": "allcoin",
  "AltMarkets": "altmarkets",
  "Altcoin Trader": "altcoin-trader",
  "Altilly": "altilly",
  "Amoveo": "amoveo",
  "Amsterdex": "amsterdex",
  "B2BX": "b2bx",
  "BBX": "bbx",
  "BCEX": "bcex",
  "BCoin.sg": "bcoinsg",
  "BITBOX": "bitbox",
  "BITHOLIC": "bitholic",
  "BITKER": "bitker",
  "BITStorage": "bitstorage",
  "BJS": "bjs",
  "BL3P": "bl3p",
  "BTC Markets": "btc-markets",
  "BTC Trade UA": "btc-trade-ua",
  "BTC-Alpha": "btc-alpha",
  "BTCBOX": "btcbox",
  "BTCC": "btcc",
  "BTCTurk": "btcturk",
  "BW": "bw",
  "BX Thailand": "bx-thailand",
  "Bancor Network": "bancor-network",
  "BankCEX": "bankcex",
  "BarterDEX": "barterdex",
  "Bequant": "bequant",
  "Bgogo": "bgogo",
  "Bibox": "bibox",
  "BigONE": "bigone",
  "Bigmarkets Limited": "bigmarkets-limited",
  "BihuEx": "bihuex",
  "Bilaxy": "bilaxy",
  "Binance": "binance",
  "Binance Jersey": "binance-jersey",
  "Bisq": "bisq",
  "Bit-Z": "bit-z",
  "Bit2C": "bit2c",
  "BitAsset": "bitasset",
  "BitBay": "bitbay",
  "BitBegin": "bitbegin",
  "BitConx": "bitconx",
  "BitFlip": "bitflip",
  "BitForex": "bitforex",
  "BitKonan": "bitkonan",
  "BitKop": "bitkop",
  "BitMEX": "bitmex",
  "BitMarket": "bitmarket",
  "BitMart": "bitmart",
  "BitMax": "bitmax",
  "BitMesh": "bitmesh",
  "Bitbank": "bitbank",
  "Bitbns": "bitbns",
  "BitcoinToYou": "bitcointoyou",
  "BitcoinTrade": "bitcointrade",
  "BiteBTC": "bitebtc",
  "Bitex.la": "bitexla",
  "Bitexlive": "bitexlive",
  "Bitfinex": "bitfinex",
  "Bithesap": "bithesap",
  "Bithumb": "bithumb",
  "Bitibu": "bitibu",
  "Bitinka": "bitinka",
  "Bitkub": "bitkub",
  "Bitlish": "bitlish",
  "Bitmaszyna": "bitmaszyna",
  "Bitmxittz": "bitmxittz",
  "Bitocto Exchange": "bitocto-exchange",
  "Bitonic": "bitonic",
  "Bitrue": "bitrue",
  "Bits Blockchain": "bits-blockchain",
  "Bitsane": "bitsane",
  "Bitso": "bitso",
  "Bitstamp": "bitstamp",
  "Bitsten": "bitsten",
  "Bittrex": "bittrex",
  "Bittylicious": "bittylicious",
  "Bleutrade": "bleutrade",
  "Blocktrade": "blocktrade",
  "Bluebelt": "bluebelt",
  "Braziliex": "braziliex",
  "BtcTrade.im": "btctradeim",
  "Buda": "buda",
  "Buenbit": "buenbit",
  "BuyUcoin": "buyucoin",
  "Bybit": "bybit",
  "C-CEX": "c-cex",
  "C-Patex": "c-patex",
  "C2CX": "c2cx",
  "CEX": "cex",
  "CEX.IO": "cexio",
  "CODEX": "codex",
  "COSS": "coss",
  "COXI": "coxi",
  "CPDAX": "cpdax",
  "CRXzone": "crxzone",
  "CashPayz Exchange": "cashpayz-exchange",
  "Cashierest": "cashierest",
  "Catex": "catex",
  "Ccore": "ccore",
  "ChainRift": "chainrift",
  "ChangeNOW": "changenow",
  "ChaoEX": "chaoex",
  "ChileBit": "chilebit",
  "Cobinhood": "cobinhood",
  "CoinChangeX": "coinchangex",
  "CoinCorner": "coincorner",
  "CoinDeal": "coindeal",
  "CoinEgg": "coinegg",
  "CoinEx": "coinex",
  "CoinEx Market": "coinex-market",
  "CoinExchange": "coinexchange",
  "CoinFalcon": "coinfalcon",
  "CoinJar Exchange": "coinjar-exchange",
  "CoinMate": "coinmate",
  "CoinMex": "coinmex",
  "CoinPlace": "coinplace",
  "CoinSpot": "coinspot",
  "CoinTiger": "cointiger",
  "CoinZest": "coinzest",
  "Coinall": "coinall",
  "Coinbase Pro": "coinbase-pro",
  "Coinbe": "coinbe",
  "Coinbene": "coinbene",
  "Coinbit": "coinbit",
  "Coindelta": "coindelta",
  "Coindirect": "coindirect",
  "Coineal": "coineal",
  "Coinfloor": "coinfloor",
  "Coingi": "coingi",
  "Coinhouse": "coinhouse",
  "Coinhub": "coinhub",
  "Coinnest": "coinnest",
  "Coinone": "coinone",
  "Coinpulse": "coinpulse",
  "Coinrail": "coinrail",
  "Coinrate": "coinrate",
  "Coinroom": "coinroom",
  "CoinsBank": "coinsbank",
  "Coinsbit": "coinsbit",
  "Coinsquare": "coinsquare",
  "Coinsuper": "coinsuper",
  "Coinut": "coinut",
  "CoolCoin": "coolcoin",
  "Covesting": "covesting",
  "Cratex": "cratex",
  "CredoEx": "credoex",
  "Crex24": "crex24",
  "CryptalDash": "cryptaldash",
  "CryptoBridge": "cryptobridge",
  "CryptoDerivatives": "cryptoderivatives",
  "CryptoMarket": "cryptomarket",
  "Cryptohub": "cryptohub",
  "Cryptology": "cryptology",
  "Cryptomate": "cryptomate",
  "Cryptopia": "cryptopia",
  "Cryptoplanex": "cryptoplanex",
  "Cryptox": "cryptox",
  "DDEX": "ddex",
  "DEEX": "deex",
  "DFLOW": "dflow",
  "DOBI": "dobi-exchange",
  "DSX": "dsx",
  "Dach Exchange": "dach-exchange",
  "Dgtmarket": "dgtmarket",
  "DigiFinex": "digifinex",
  "Digitalprice": "digitalprice",
  "DragonEX": "dragonex",
  "EXC Cripto": "exc-cripto",
  "EXX": "exx",
  "Einax": "einax",
  "Escodex": "escodex",
  "EtherDelta": "etherdelta",
  "EtherMium": "ethermium",
  "Ethex": "ethex",
  "Ethfinex": "ethfinex",
  "Exmo": "exmo",
  "Exrates": "exrates",
  "FCoin": "fcoin",
  "FINEXBOX": "finexbox",
  "FYB-SE": "fybse",
  "FYB-SG": "fyb-sg",
  "Fargobase": "fargobase",
  "Fatbtc": "fatbtc",
  "Fisco": "fisco",
  "ForkDelta": "forkdelta",
  "FreiExchange": "freiexchange",
  "GBX Digital Asset Exchange": "gbx-digital-asset-exchange",
  "GDAC": "gdac",
  "GOPAX": "gopax",
  "GOZO": "gozo",
  "Gate.io": "gateio",
  "Gatecoin": "gatecoin",
  "Gemini": "gemini",
  "GetBTC": "getbtc",
  "Globitex": "globitex",
  "Graviex": "graviex",
  "GuldenTrader": "guldentrader",
  "HOTDEX": "hotdex",
  "Heat Wallet": "heat-wallet",
  "HitBTC": "hitbtc",
  "Hotbit": "hotbit",
  "Hubi": "hubi",
  "Huobi": "huobi",
  "Huobi (HBUS)": "huobi-hbus",
  "IDAX": "idax",
  "IDCM": "idcm",
  "IDEX": "idex",
  "ISX": "isx",
  "InPay": "inpay",
  "Independent Reserve": "independent-reserve",
  "Indodax": "indodax",
  "InfinityCoin Exchange": "infinitycoin-exchange",
  "Instant Bitex": "instant-bitex",
  "Iquant": "iquant",
  "Kineticex": "kineticex",
  "KoinFit": "koinfit",
  "Koineks": "koineks",
  "Koinex": "koinex",
  "Koinim": "koinim",
  "Kompler": "kompler",
  "Korbit": "korbit",
  "Kraken": "kraken",
  "Kryptono": "kryptono",
  "Kucoin": "kucoin",
  "Kuna": "kuna",
  "Kyber Network": "kyber-network",
  "LATOKEN": "latoken",
  "LEOxChange": "leoxchange",
  "Labrotix": "labrotix",
  "LakeBTC": "lakebtc",
  "Lbank": "lbank",
  "LedgerDex": "ledgerdex",
  "Liqui": "liqui",
  "Liquid": "liquid",
  "LiteBit.eu": "litebiteu",
  "Livecoin": "livecoin",
  "Luno": "luno",
  "Lykke Exchange": "lykke-exchange",
  "Maicoin Asset Exchange": "maicoin-asset-exchange",
  "MapleChange": "maplechange",
  "Mercado Bitcoin": "mercado-bitcoin",
  "Mercatox": "mercatox",
  "MercuriEx": "mercuriex",
  "MixCoins": "mixcoins",
  "Mylocalcoin": "mylocalcoin",
  "Nanex": "nanex",
  "Negocie Coins": "negocie-coins",
  "Neraex": "neraex",
  "Nocks": "nocks",
  "Novaexchange": "novaexchange",
  "Nuex": "nuex",
  "OEX": "oex",
  "OKCoin.cn": "okcoincn",
  "OKEx": "okex",
  "OTCBTC": "otcbtc",
  "OasisDEX": "oasisdex",
  "OkCoin International": "okcoin-international",
  "Omgfin": "omgfin",
  "Omicrex": "omicrex",
  "OpenLedger DEX": "openledger-dex",
  "Ore.Bz": "orebz",
  "Ovis": "ovis",
  "P2PB2B": "p2pb2b",
  "Panxora": "panxora",
  "Paradex": "paradex",
  "Paribu": "paribu",
  "PayCml": "paycml",
  "Paymium": "paymium",
  "PicoStocks": "picostocks",
  "Poloniex": "poloniex",
  "ProBit Exchange": "probit-exchange",
  "PurCow": "purcow",
  "QB": "qb",
  "QBTC": "qbtc",
  "Qryptos": "qryptos",
  "QuadrigaCX": "quadrigacx",
  "Radar Relay": "radar-relay",
  "Raisex": "raisex",
  "RightBTC": "rightbtc",
  "STEX": "stex",
  "SafeTrade": "safetrade",
  "Satang Pro (TDAX)": "tdax",
  "Satowallet": "satowallet-exchange",
  "Saturn Network": "saturn-network",
  "SecondBTC": "secondbtc",
  "Simex": "simex",
  "Sistemkoin": "sistemkoin",
  "SouthXchange": "southxchange",
  "Stellarport": "stellarport",
  "Stronghold": "stronghold",
  "Swiftex": "swiftex",
  "Switcheo Network": "switcheo-network",
  "TCC Exchange": "tcc-exchange",
  "TOKOK": "tokok",
  "TOKPIE": "tokpie",
  "TOPBTC": "topbtc",
  "TRX.market": "trxmarket",
  "TURUKO": "turuko",
  "The Rock Trading": "the-rock-trading",
  "Thore Exchange": "thore-exchange",
  "Tidebit": "tidebit",
  "Tidex": "tidex",
  "Token Store": "token-store",
  "Tokenjar": "tokenjar",
  "Tokenmom": "tokenmom",
  "Tokenomy": "tokenomy",
  "Tokens.net": "tokensnet",
  "Trade By Trade": "trade-by-trade",
  "Trade Crypto King": "trade-crypto-king",
  "Trade Satoshi": "trade-satoshi",
  "Trade.io": "tradeio",
  "TradeOgre": "tradeogre",
  "Tripe Dice Exchange": "tripe-dice-exchange",
  "Troca Ninja": "troca-ninja",
  "Turtle Decentralized Exchange": "turtle-decentralized-exchange",
  "Tux Exchange": "tux-exchange",
  "Txbit": "txbit",
  "UEX": "uex",
  "Ubit": "ubit",
  "UniDAX": "unidax",
  "Upbit": "upbit",
  "UrduBit": "urdubit",
  "VBTC": "vbtc",
  "Vebitcoin": "vebitcoin",
  "WEX": "wex",
  "Wadax": "wadax",
  "Waves Decentralized Exchange": "waves-decentralized-exchange",
  "WazirX": "wazirx",
  "XBTS": "xbts",
  "XS2": "xs2",
  "Xena Exchange": "xena-exchange",
  "YoBit": "yobit",
  "ZB.COM": "zbcom",
  "ZBG": "zbg",
  "ZEBITEX": "zebitex",
  "ZG.top": "zgtop",
  "Zaif": "zaif",
  "Zebpay": "zebpay",
  "Zolex": "zolex",
  "bitFlyer": "bitflyer",
  "coincheck": "coincheck",
  "ezBtc": "ezbtc",
  "fex": "fex",
  "itBit": "itbit",
  "ooobtc": "ooobtc",
  "qTrade": "qtrade",
  "xBTCe": "xbtce"
}