{
   "ZAP":"Zapaygo",
   "VOTE":"Agora",
   "UGAS":"Ultrain",
   "JURA":"JURA",
   "KB":"KBcoin",
   "APL":"Alt Planet",
   "GOVT":"The Government Network",
   "VER":"VeryFile",
   "TRADE":"Smart Trade Coin",
   "TALAR":"winkPark",
   "AVF":"AsicVault",
   "ENCN":"EndChain",
   "NXBT":"NeuronX",
   "MEDICI":"Lancor Blockchain Platform",
   "AAS":"aassio",
   "SOUL":"Phantasma",
   "COVEX":"CoVEX",
   "ADUX":"Adult X Token",
   "M2O":"M2O",
   "MNVM":"NOVAM",
   "XPT":"Cryptobuyer",
   "ORET":"ORET",
   "VTM":"Victorieum",
   "TED":"Tedchain",
   "TURN":"CarSmartt",
   "MBC":"MamboCoin",
   "CYBR":"CYBR",
   "ATH":"Ethereum Anonymizer",
   "HBE":"healthbank",
   "AX":"Alpha-X",
   "MIMIC":"MIMIC",
   "MYO":"Mycro",
   "HETA":"HetaChain",
   "BFC":"BioFactoryCoin",
   "CSQ":"cosquare",
   "BSC":"BrickChain",
   "LNK":"Ethereum.link",
   "AER":"Aeryus",
   "XRK":"RecordsKeeper",
   "MBTX":"MinedBlock",
   "COS":"Contentos",
   "SCC":"SmartContractChain",
   "TREX":"TreeBlock",
   "STB":"Stable",
   "ASG":"Asgard",
   "INX":"Investx",
   "NZO":"Alfa-Enzo",
   "XS2":"XS2 Exchange",
   "BTZ":"Bitzon",
   "433":"433",
   "HXC":"HexanCoin",
   "BTD":"Bitdrive",
   "2TF":"2TF",
   "DNM":"Deneum",
   "SOCM":"SociumTrade",
   "RF":"Raido Financial",
   "NMK":"Namek",
   "TFIO":"TheFund.io",
   "WLME":"Wellmee",
   "NATEE":"NATEE",
   "CBUK":"CurveBlock",
   "SHPC":"ShipNEXT",
   "IMA":"Imagol",
   "REMCO":"REMCO",
   "MTEL":"MEDoctor",
   "LYFE":"Lyfe",
   "UNI":"Union",
   "AXC":"autoXchange",
   "Verifer":"Verifer",
   "MZK":"Muzika",
   "SYLO":"Sylo",
   "STKR":"Stackr",
   "FNL":"Finlocale",
   "MDAPP":"MillionDollarDAPP",
   "TWC":"Twilight Coin",
   "MPAY":"MenaPay",
   "UMCC":"UMC",
   "ULD":"ULedger",
   "FIH":"Fidelity House",
   "CSP":"Caspian",
   "TAR":"Robotar",
   "PETL":"Petlife",
   "QOBI":"Qobit",
   "TKD":"Tokedo",
   "LGR":"GYM Ledger",
   "FIRE":"Powershare",
   "CNS":"Coinstruction",
   "FNX":"Finix",
   "FIII":"Fiii",
   "ONAM":"ONAM",
   "OSF":"One Solution",
   "XMAT":"XMaterials",
   "RSE":"Rise Housing",
   "BIP":"Minter Network",
   "CFS":"CoinFast",
   "SBCE":"SBC Platform",
   "BTZC":"BeatzCoin",
   "UTD":"Airdrop United",
   "EXC":"EximChain",
   "UTX":"UTIX",
   "BOZZ":"Bitozz",
   "ECT":"Eloncity",
   "IMP":"Brain Space",
   "LOAN":"Lendoit",
   "GAIN":"Gainfy",
   "WNC":"Winnest",
   "FLB":"Farasha",
   "HCT":"RET",
   "BCT":"Blockchain Terminal",
   "HUB":"Hubcoin",
   "HAB":"HAB",
   "WOM":"WOM",
   "ICRM":"ICAREUM",
   "KLIX":"Magnetics",
   "BLK":"Blok",
   "FTST":"FootStar",
   "CDRX":"CDRX",
   "WHO":"Truwho",
   "MOV":"Moveco",
   "XTX":"XTock",
   "XRES":"XResearch",
   "ARQ":"Arqit",
   "ODDS":"ODDS",
   "QDEX":"QUANTA",
   "LK":"LIKER WORLD",
   "NHCT":"NHCT",
   "PMX":"PrimeX",
   "PTNX":"Platin",
   "AIRT":"Aircraft",
   "SPIT":"SPIToken",
   "CFGT":"Cardonio",
   "CIX100":"Cryptoindex.io",
   "CCH":"CitiCash",
   "TRAVEL":"TravelVee",
   "CRF":"CrowdForce",
   "NDVX":"NODVIX",
   "STCN":"Stein Coin",
   "BR11":"BR11 Token",
   "RUNE":"THORChain",
   "NACL":"Saltmine",
   "GZB":"Gigzi",
   "ZUUM":"Zuum",
   "KLP":"KOILOP",
   "EST":"EstateCoin",
   "MEL":"Melior AI",
   "XFN":"GoodX Finance Network",
   "OFZ":"OfferZone",
   "HEDG":"Hedge",
   "CCIN":"Cryptocoin Insurance",
   "LYNK":"Lynked.World",
   "CBP":"Callback+",
   "BCNA":"BitCanna",
   "IFUM":"INFLEUM",
   "NEXXO":"NEXXO",
   "CUPRUM":"Cuprum",
   "BITBON":"Bitbon System",
   "GMST":"Gaming Stars",
   "PGAS":"Platio",
   "MITC":"MusicLife",
   "DISC":"Discoperi",
   "TEO":"Tokeneo",
   "AWT":"WhatsOnPic",
   "NEL":"NEL",
   "RGL":"Argyle",
   "ELAC":"ELAMACHAIN",
   "MGC":"Myanmar Gold Coin",
   "XNY":"Cryptonity",
   "REB":"ReB Project",
   "VOCT":"VOCO",
   "CRR":"CryptoCasher",
   "RWD":"Reward Vision",
   "KAAS":"KAASY.AI",
   "MANX":"MANX",
   "SMT":"SunMultiwallet",
   "XRM":"AERUM",
   "RTH":"Rutheneum",
   "TOL":"Tolar HashNET",
   "ASET":"Agro Stock Exchange",
   "ALV":"Allvor",
   "ACLYD":"Aclyd",
   "FFUEL":"getFIFO",
   "BTSM":"Bitsmo",
   "PBT":"Primalbase",
   "SRT":"SRT",
   "PAP":"PAPLE",
   "CADS":"CryptoAdSolution",
   "GAT":"Gatcoin",
   "AMRS":"Ammeris",
   "LOCK":"Envilope",
   "ELAD":"ELAD",
   "CATER":"Newcater",
   "MUST":"MustangChain",
   "EBN":"eBonus",
   "LCRX":"Lucre Global",
   "XOM":"OmniBazaar",
   "BOOK":"Influbook",
   "HIC":"HI-TEK",
   "BOLT":"BOLT",
   "EZPZ":"Esprezzo",
   "GGP":"GGPro",
   "FANZ":"FanChain",
   "FENIKS":"Feniks.Finance",
   "VIRT":"Virtuse Exchange",
   "FAN":"FansUnite",
   "MGF":"Magnify",
   "FTC":"Fair Trade Cab",
   "FLASH":"Flashcoin",
   "CRB":"Veridium",
   "FNQ":"Finnoq",
   "XMP":"XMP",
   "PMK":"Pumpkin",
   "ECR":"Eastads Credits",
   "SBL":"Satoshi Brewery",
   "VIDT":"V-ID",
   "PANX":"Pantercon",
   "BXM":"Bixtrim",
   "Nebula Genomics":"Nebula Genomics",
   "CAS":"Cashaa",
   "PO8":"PO8",
   "BZKY":"Bizkey",
   "PRIZE":"FreeCash",
   "GEON":"Geon Network",
   "F2K":"Farm2Kitchen",
   "GTN":"Greentoken",
   "CLX":"ClinTex",
   "IPT":"Crypt-ON",
   "MDX":"Modex",
   "TEMCO":"TEMCO",
   "MTX":"Matryx",
   "LVL":"LevelNet",
   "CAP":"CAPVERTO",
   "CNAB":"Cannabium",
   "TGT":"Target Coin",
   "ALUX":"Alux Bank",
   "PRX":"PrymeX",
   "ZRF":"Zorff",
   "SPRY":"SpryOne",
   "BVO":"BRAVO",
   "DACSEE":"DACSEE",
   "TMP":"TeamMate",
   "NAVI":"BoatPilot",
   "BETEC":"Betec",
   "Colendi":"Colendi",
   "CTXC":"Cortex",
   "DDD":"DropDeck",
   "XTV":"Centive",
   "COL":"Color",
   "EZY":"EZYcount",
   "DHC":"dClinic",
   "STAR":"Starbase",
   "ASM":"Asmbler",
   "FBC":"Feon",
   "RNDIT":"Render It Coin",
   "LTR":"Labtorum",
   "PLTX":"PlutusX",
   "ME":"allabout.me",
   "BC":"Boomstarter.Network",
   "TCJ":"CoinShare",
   "ROM":"ROM",
   "INTOS":"Influ",
   "EXO":"EXMO Coin",
   "BUCKY":"Bucky Coin",
   "ICO Max":"ICO Max",
   "DIO":"DECIMATED",
   "MASTER":"MNODE",
   "OMN":"Omnilytics Platform",
   "VIDY":"VIDY",
   "FISH":"Fishcoin",
   "XRBT":"Xtribe",
   "FITX":"FITX",
   "FET":"Fetch.AI",
   "FILM":"Filmgrid",
   "ZILLA":"ChainZilla.io",
   "CCET":"CCET Project",
   "TKT":"Crypto.tickets",
   "IOV":"IOV",
   "SUP":"SuperDAO",
   "COG":"Cognida",
   "INTER":"Internacional Coin",
   "XERA":"XERA",
   "TIBRIX":"TIBRIX",
   "AZS":"AI Zeus Blockchain",
   "ZMR":"Zimrii",
   "JAM":"hearo.fm",
   "NAI":"NAi",
   "BITGAMECASH":"BitGame Cash",
   "MCE":"MultiChainExchange",
   "EYC":"EveryCoin",
   "BOUNCY":"Bouncy Coin",
   "IMEXE":"IMEXE",
   "LTY":"Longevity United",
   "SWC":"Star Wars Coin",
   "MNC":"Moneynet",
   "TTO":"CRYPTTO",
   "NRX":"Neironix",
   "PRKC":"Parkade",
   "BUZ":"Buzcoin",
   "TDX":"Tradetex Exchange",
   "IOUX":"IOU",
   "DNX":"Digital Nomad Community",
   "PPL":"Peoples Token",
   "NEF":"NEO Finance",
   "GRAT":"Gratzio",
   "OGO":"VogoV",
   "DCT":"DECENT",
   "AVL":"AvailCom",
   "TPX":"TPX Network",
   "SK":"The Power",
   "TL":"TokenLoan",
   "TPO":"TIPO",
   "BITFEX":"BitFex.Trade",
   "JOBTK":"Job.com",
   "8BT":"8 Circuit Studios",
   "FRS":"FRee Start Coin",
   "FACTR":"FactR",
   "DAX":"DAEX",
   "PPS":"PopulStay",
   "PSH":"PropPush",
   "SNPC":"Snapparazzi",
   "AUG":"ABR",
   "BP":"Backpack Travel",
   "EMI":"EIPlatform",
   "S4FE":"S4FE",
   "SET":"Setcoin",
   "PLEO":"Empleos.io",
   "ELES":"Elements Estates",
   "SEC":"SecureCryptoPayments",
   "REMI":"REMIIT",
   "ARCUS":"ARCUS",
   "YDS":"Your Data Safe",
   "APXT":"ApolloX",
   "MAKE":"MAKE",
   "GEMA":"GEMERA",
   "ZWP":"Zwoop",
   "APT":"ArtPro",
   "IX":"X-Block",
   "GET":"GUTS Tickets",
   "SRXIO":"Securix",
   "PSF":"Prime Shipping Foundation",
   "MODL":"Module",
   "LIB":"Liberdy",
   "SYM":"Symbioses",
   "OPK":"Open Packaging Network",
   "XBT":"Exbitrade",
   "LLG":"LOLIGO",
   "ORC":"Oracles Network",
   "EZ8":"EZeeBUY",
   "CPX":"CareParrot",
   "ORIGO":"Origo Network",
   "PERL":"Perlin",
   "Algorand":"Algorand",
   "DUO":"DUO Network",
   "SPT":"Spatium",
   "MCT":"Meerkat",
   "WMPRO":"WMPRO",
   "HIX":"HELIX Orange",
   "SVP":"SVPER",
   "KRON":"KRONOS",
   "MoonX":"MoonX",
   "THX":"Thrill Platform",
   "INCO":"Incodium",
   "ATT":"Atmatrix",
   "NVOY":"Envoy",
   "GENEOS":"genEOS",
   "KKT":"Konkrete",
   "EXN":"Excoins Exchange",
   "RTC":"Rothscoin",
   "RRT":"RealtyReturns",
   "KART":"Kart Block",
   "GAUS":"GAUS",
   "TCX":"Tiberius Coin",
   "ARBIT":"Topl",
   "CLF":"CryptoLeaf",
   "DUSK":"Dusk",
   "VIDI":"VIDION",
   "ELINK":"iLink2Music",
   "PINMO":"Pinmo",
   "PXG":"Play Game",
   "SLNT":"Silent",
   "GCC":"GameChain",
   "PN":"Phenomenal Network",
   "KVT":"KVANTOR",
   "FOX":"UniFox",
   "BUY":"Bpay",
   "GGC":"Gingercoin",
   "BTWAY":"ByTheWay",
   "CINX":"Cinematix",
   "GBA":"Geeba",
   "ITU":"iTrue",
   "ITX":"Intellos",
   "ABL":"Airbloc",
   "RCAT":"Red Cat",
   "DSLA":"Stacktical",
   "CREV":"CryptoRevolution",
   "CNVT":"Conventment",
   "CRAFTR":"CraftR",
   "YEZ":"Yezcoin",
   "ZYM":"Enzym",
   "RENC":"RENC",
   "FILO":"Filotech",
   "MBN":"Membrana",
   "KPX":"KAPEX",
   "XCL":"XcelR",
   "ECTA":"ECTA",
   "IGTT":"In Good Traders",
   "XOS":"Excalibur OS",
   "RBE":"Re Born Bloc",
   "NES":"Genesis Space",
   "SCM":"SmartChain Media",
   "OUTINV":"NetScouters",
   "IMPACT":"GreenLink",
   "SYNCO":"SYNCO",
   "SPEC":"Spectrum Network",
   "ALL":"AllSporter",
   "FOOD":"FoodNation",
   "EAP":"EOS AUCTION PLATFORM",
   "BBOS":"Blackbox",
   "HRBE":"LAND LAYBY",
   "RPB":"Republia",
   "BQT":"BQT",
   "BITX":"BitScreener",
   "SCAVO":"SCAVO Technologies",
   "XIF":"XInfinity",
   "SKYM":"Soar",
   "NLS":"Neluns",
   "AUD":"Aussie Digital",
   "SER":"Seratio Platform",
   "ID":"TrigID",
   "CRET":"7Seconds",
   "VENA":"Vena Network",
   "WNK":"Woonkly",
   "DOOH":"Bidooh",
   "ELM":"Electrominer",
   "CKB":"Nervos",
   "MultiVAC":"MultiVAC",
   "META":"Metabase",
   "Ankr Network":"Ankr Network",
   "AERGO":"AERGO",
   "Logos Network":"Logos Network",
   "CCHN":"Celes Chain",
   "JUR":"Jur",
   "DGO":"DINNGO",
   "PHOTON":"Laser Protocol",
   "BAK":"TokenBacon",
   "ZUE":"ZUE",
   "EMU":"EMU",
   "BSX":"Block Sports",
   "MSM":"Museums Chain",
   "PTON":"Foresting",
   "IOEX":"ioeX",
   "Solana":"Solana",
   "DRESS":"DressCode",
   "WATT":"WorkChain.io",
   "TXP":"Trade Pharma Network",
   "EQUOS":"Sidera",
   "OICOIN":"Osmium Investment Coin",
   "ZZ":"Zenodys",
   "C3C":"C3C.Network",
   "PRC":"PerksCoin",
   "AXN":"AXNET",
   "IRESPO":"iRespo",
   "HBX":"Hyperbridge",
   "MRQ":"Marqyt",
   "ATL":"Atlant",
   "ADAB":"ADAB Solutions",
   "TOS":"Things Operating System",
   "LAMB":"Lambda",
   "KHP":"Kheper",
   "MFUN":"Mfun",
   "MRG":"Margin",
   "RSC":"Ronaldinho Soccer Coin",
   "SLEE":"Sleecoin",
   "GMS":"Gemstra",
   "LOT":"MediLOT",
   "RET":"Retainly",
   "CYO":"CYO",
   "SHKG":"SharkGate",
   "KN":"Knowchain",
   "EKSPA":"Ekspa",
   "XCV":"XCOV",
   "PRY":"PRIMARY",
   "SPKZ":"Spokkz",
   "COOP":"COOPEX",
   "GPC":"GamePlayerCoin",
   "TSC":"TalentSnap",
   "VIC":"VICoin",
   "KMX":"KiMex",
   "WEBN":"Web Innovation PH",
   "KTO":"Kryptoro",
   "ALC":"Alicoin",
   "CZN":"Chozun",
   "Clarity":"Clarity",
   "HBL":"Humbyl",
   "EXT":"EXCHAIN",
   "PAX":"PayperEx",
   "DCMO":"Documo",
   "ASO":"ACESO",
   "ST":"Simple Token",
   "HART":"HARA",
   "DST":"Dimensions Network",
   "MERGE":"Merge: Eternal Battlegrounds",
   "12SHIPS":"12Ships",
   "EZX":"EZ Exchange",
   "AQUA":"Sansox",
   "ETS":"EcoToken",
   "XMN":"Xmoneta",
   "DGS":"Dragonglass",
   "ZERO":"ZeroEdge",
   "SCE":"Smart City Eco",
   "LCN":"Cryptoloans",
   "NETZ":"NETZ",
   "SKP":"SleekPlay",
   "VITE":"Vite",
   "URA":"URAllowance",
   "ALP":"Alphacon",
   "EKK":"EkkBaz",
   "T50":"Tripterium T50",
   "UXM":"The UXM",
   "DPC":"DrupeCoin",
   "ZED":"ZED Crypotcurrency",
   "HIDU":"H Education World",
   "VENUS":"VenusEnergy",
   "SWDC":"Sword Coin",
   "HNN":"Helios Neural Network",
   "PLTC":"Playtrip",
   "INSC":"InsCoin for Knox Project",
   "R\u012aX":"BEATR\u012aX",
   "BLOC":"Blockcloud",
   "QPT":"Qubit Protocol",
   "ERG":"Cartesi",
   "OGT":"One Game",
   "ATLS":"Atlas Network",
   "AGT":"Agate",
   "BUILD":"BUILDERIUM",
   "TGA":"Togacoin",
   "XRF":"Sarf",
   "CLN":"Colu Local Network",
   "TEMP":"Tempow",
   "CDS":"CODSET",
   "QUB":"Cube Chain",
   "CAND":"Canlead",
   "BTM":"Bytom",
   "REDT":"Real Estate Doc",
   "DPT":"Deliverers Power Token",
   "VDT":"VIDDO",
   "AID:Tech":"AID:Tech",
   "MHLX":"Helix",
   "SATT":"SaTT",
   "ARIA":"Arianee",
   "ILK":"INLOCK",
   "BUBL":"Bubblo",
   "HILL":"HELIXHILLS",
   "VGW":"VegaWallet",
   "ALCR":"ALLCARE",
   "DR":"Dream Real",
   "ZNC":"Zeon Network",
   "CC":"CustomCoin Platform",
   "URP":"Universal Reward Protocol",
   "LNC":"Blocklancer",
   "GM":"GeoManna",
   "BLL":"BLOCKLOAN",
   "TKX":"Tokenize",
   "TREE":"HyperionX",
   "BLOX":"Bloxia",
   "CTW":"Citowise",
   "BX":"BX.BET",
   "UCOIN":"Ucoin",
   "PEXC":"PexCash",
   "NAT":"Nametoken",
   "FRST":"Forest Foundation",
   "GLN":"Galion.io",
   "FERN":"Fern Protocol",
   "INFLR":"Inflr",
   "GDC":"EasyGuide",
   "MDR":"MatchDiary",
   "CRL":"Cryptelo",
   "MEP":"Medipedia",
   "SDT":"Alchemint",
   "CARAT":"Carats.io",
   "SCR":"Scorum",
   "NPT":"NeoPlace",
   "LOTO":"CryptoMillionsLotto",
   "MOBU":"MOBU",
   "PROQ":"Quarteria",
   "BNZ":"BandZ Network",
   "APO":"APO Finance",
   "BDT":"Bitdepositary",
   "LIO":"LIOS",
   "CCWT":"Clearcost",
   "RAYS":"Rays Network",
   "SBT":"STAR BIT",
   "FXP":"FXPay",
   "DAN":"Daneel",
   "BKT":"Bucket",
   "PEP":"PEP NETWORK",
   "MAP":"MapCoin",
   "MONET":"MONET",
   "HDN":"HALADINAR",
   "VRH":"Virtual Rehab",
   "PASS":"WisePass",
   "HDP":"HEdpAY",
   "BLKD":"Blinked",
   "EC":"EarthCycle",
   "CALL & CALLG":"Capital Technologies & Research",
   "BBT":"BitBoost",
   "MEDIBIT":"MediBit",
   "GT":"GoneTrippin",
   "KRP":"Kryptoin",
   "TCD":"Tkeycoin DAO",
   "BMF":"Bitminer Factory",
   "DOM":"Dominium",
   "SON":"Skynet",
   "STAE":"Sagittae",
   "QUANT":"Quantler",
   "BRIK":"CryptoBrick",
   "CCX":"CRYX",
   "DEAL":"Foreground",
   "LTO":"Lotus",
   "PNP":"LogisticsX",
   "TCHN":"Tachain",
   "WDX":"weiDex",
   "ET":"ENDO",
   "INF":"Infinitus Token",
   "HILA":"Hilarium",
   "AL":"Alive Casino",
   "AISI":"AISI COIN",
   "CMA":"CoinMarketAlert",
   "LVCOIN":"LendChain",
   "MN8":"Emanate",
   "VAD":"Varanida",
   "AKT":"Aktie Social",
   "WBY":"WeBuy",
   "LQ8":"Liquid8",
   "SNCOIN":"ScientificCoin",
   "SG":"SocialGood",
   "VERA":"Robot Vera",
   "GNX":"Genaro",
   "LXC":"Luxcess Group",
   "#MHC":"#MetaHash",
   "REDF":"RedFund",
   "Optherium":"Optherium",
   "GPX":"Green Power Exchange",
   "NWST":"NWS.One",
   "CXA":"CryptovationX",
   "MIX":"Mix Rent",
   "UMO":"Chanjinn",
   "MAJI":"Majime",
   "XUM":"Ultroneum",
   "JCASH":"JCASH",
   "CTU":"Contractium Network",
   "TRIL":"Trilliant",
   "ORBS":"Orbis",
   "TTC":"TTC PROTOCOL",
   "SIV":"Bitsive Exchange",
   "XBET":"LetsBet",
   "TBL":"Tombola",
   "REDI":"REDi",
   "BZX":"bZx",
   "HILO":"Hilo.io",
   "BTT":"Battle of Titans",
   "XBF":"Bitfair",
   "STRY":"STRYKZ",
   "TOEX":"Toex Coin",
   "RNG":"Fatum",
   "EVER":"EverLife.AI",
   "ERN":"ERN",
   "AIRE":"Tokenaire",
   "LUMA":"Alluma",
   "AALT":"Arizn",
   "SFT":"Superfruit",
   "MAF":"MAKEAFOLIO",
   "RAID":"Craider",
   "EMX":"EverMarkets",
   "ICT":"Intrachain",
   "PYRO":"Promether",
   "LOC":"LockTrip",
   "PLA":"PlayChip",
   "MOB":"Mobiuz",
   "MPQ":"Impact PPA",
   "GANA":"GANA",
   "MHST":"MintHealth",
   "LXP":"LocalXpose",
   "UNET":"UNCHAINET",
   "OLM":"Olam Foundation",
   "HEY":"Hey, Be Well!",
   "OOO":"GOODWORK",
   "PRT":"Papusha",
   "DIT":"Inmediate",
   "ISM":"Istrium",
   "NETR":"Netterium",
   "TDC":"TrenderCoin",
   "GRAN":"Gramaton",
   "XDF":"DeFund Project",
   "ICHN":"i-chain",
   "U42":"You42",
   "HASH":"Hashbon",
   "BST":"Betstreak",
   "INSTA":"Instoken",
   "VTEX":"Vertex",
   "BeANKH":"BeANKH",
   "IXE":"IXTUS",
   "DRN":"The Digital Reserve",
   "PTH":"Philanthor",
   "VRZ":"Verzz",
   "EOT":"EON",
   "GMC":"GoldMineCoin",
   "JUPT":"Jupiter Chain",
   "ARCA":"Arcana Wallet",
   "APC":"Astoria",
   "VTUUR":"VTUUR",
   "OKMC":"OKMCoin",
   "ETHTT":"ETH Travel",
   "FOAM":"FOAM",
   "PRLPAY":"Pearl Pay",
   "DFINITY":"DFINITY",
   "NTV":"Nativecoin",
   "NAME":"VName",
   "PYZ":"Payiza",
   "CMK":"Coolomat Market",
   "POP":"PopChest",
   "GSTAR":"GSTAR.AI",
   "BTMG":"Bitcademy Football",
   "BLV":"Blockvest",
   "CBDF":"CBDoken",
   "PSI":"Payment Solutions International",
   "CGT":"Cryptogene",
   "B66":"Block66",
   "BTSG":"BitSong",
   "YANU":"Yanu",
   "EGR":"Engraved",
   "LED":"Terawatt",
   "EYE":"EyeGlob.Net",
   "Lesschain":"Lesschain",
   "Coral Health":"Coral Health",
   "KBX":"Korbex",
   "CMB":"Creatanium",
   "YMZ":"YAMZU",
   "XEP":"ephelants360",
   "GRD":"Diamond Guard",
   "GLDR":"WAR FIELD",
   "BLOK":"BlockClick",
   "LTMF":"LiTeum",
   "BAILS":"Bailsman",
   "TMB":"Teambrella",
   "TRUF":"Trufield",
   "JAR":"Jarvis+",
   "DAD":"DAD",
   "HV":"HighVibe.Network",
   "UPS":"Upstake",
   "LTE":"Local Token Exchange",
   "LAC":"LACCOIN",
   "AIOP":"AI Opinion",
   "LIPS":"LIPCHAIN",
   "ICBT":"ICBCoin",
   "LXX":"LUXXEUMCOIN",
   "PAD":"PaidEx",
   "SPSL":"Sports Ledger",
   "SMM":"ShareMe Music",
   "NER":"NEURON",
   "GLPN":"Global Pay Net",
   "NEW":"Newton",
   "BDAQ":"Bdaq",
   "AVA":"Avalon",
   "KYO":"Kayo Credits",
   "GIT":"Gnome Invasion",
   "Mykrosystem":"Mykrosystem",
   "PTO":"Patentico",
   "DRCG":"DRCG",
   "BMC":"Blackmoon Crypto",
   "YINC":"YINC",
   "ABELE":"ABELE",
   "XVT":"Vantage Network",
   "SVRN":"Sovren Exchange",
   "VAI":"VMC.AI",
   "27v":"27v",
   "POT":"Ponics Tech",
   "XCLP":"Chynge",
   "GOOD":"Commit Good",
   "GXC":"GXC",
   "CLC":"Coal Coin",
   "RBDT":"ROMAD Endpoint Defense",
   "MTB":"Matou",
   "CSR":"SocialRemit",
   "OFC":"Officium",
   "SWIPE":"SWIPE Network",
   "DX":"DxChain",
   "NEX":"Novex",
   "BATT":"BATT",
   "TVS":"TrustVerse",
   "PIC":"Chain Works",
   "LDG":"LEDGIT",
   "LIN":"Academia Lingu",
   "EQI":"EQI",
   "HORN":"Cornucopia.io",
   "UME":"Umewin",
   "GBK":"Greenblock Coin",
   "LVX":"LVX",
   "GBO":"Gabro",
   "PLEX":"Storeplex",
   "UTA":"Ultra",
   "SWG":"Swing",
   "SEN":"SEN",
   "GGR":"GGRocket",
   "HEALTH":"VANHEALTHING",
   "DEPO":"Depository Network",
   "URAC":"Uranus",
   "BIRC":"BIRC",
   "CTY":"Connecty.io",
   "SDX":"SciDex",
   "OMAI":"MIND AI",
   "IONC":"IonChain",
   "ECB":"European Crypto Bank",
   "HUMA":"Humancoin",
   "NZT":"NZToken",
   "LYQD":"eLYQD",
   "CDL":"Confideal",
   "ETE":"Extradecoin",
   "SCO":"ShopperCoin",
   "4ART":"4ARTechnologies",
   "COLL":"Collegecoin",
   "ZAZA":"ZAZA",
   "REO":"CAREONCHAIN",
   "WMB":"WatermelonBlock",
   "CCI":"Cyber Capital Invest",
   "EGD":"EGold",
   "CLB":"Cloudbric",
   "YBT":"YellowBetter",
   "EJAC":"EjaCoin",
   "MCB":"MyCryptoBank",
   "UTL":"Utile Network",
   "COY":"CoinAnalyst",
   "AUK":"Aurora Ecosystem",
   "DAC":"HDAC",
   "AKC":"ArtWook",
   "Dashing":"Dashing",
   "XEN":"Xenia",
   "DANS":"DAN",
   "ALZA":"ALZA",
   "AVINOC":"AVINOC",
   "MERO":"Vreo",
   "FOTA":"Fortuna",
   "PPT":"Populous",
   "TMONEY":"Time Money",
   "BOX":"BeonBOX",
   "OKEY":"OkeyDokey",
   "LTF":"Letsfair",
   "HBR":"Harbor",
   "TRE":"TRESARO",
   "ACX":"Access Network",
   "MET":"The Memessenger",
   "VCE":"VICECOIN",
   "SIDT":"SID Token",
   "GOX":"GoldBox",
   "KRK":"KIRIK Protocol",
   "SRX":"Solarex",
   "OVO":"ICOVO",
   "2KEY":"2Key Network",
   "TOT":"Trecento Blockchain Capital",
   "DTEP":"DECOIN DTEP",
   "ACG":"ArtChain Global",
   "MEFY":"MeFy",
   "TRN":"Ternion",
   "CRMT":"Cremit",
   "XPX":"ProximaX",
   "HLX":"HELEX",
   "IP":"VAULTITUDE",
   "NOTES":"Choon",
   "BRIX":"OpenBrix",
   "CRV8":"Cryptov8",
   "SPX":"Sp8de",
   "SOUNDEON":"Soundeon",
   "FRECN":"FRELDO",
   "CGO":"Clash & GO",
   "SGO":"Selfie GO",
   "SBJ":"SUBAJ Global Network",
   "NRDC":"Nordcoin",
   "QBX":"qiibee",
   "DYNO":"DYNO",
   "PARQ":"PARQ",
   "CHE":"Cache",
   "PHM":"Phoneum",
   "FMF":"Formosa Financial",
   "Zeus Protocol":"Zeus Protocol",
   "STG":"STAYGE",
   "TRT":"Tuurnt",
   "WPP":"WPP",
   "LPC":"Little Phil",
   "MXC":"Matrix Coin",
   "PESA":"Credible Network",
   "MAE":"MAESTRO",
   "AAT":"AAT",
   "LTS":"Lifetask",
   "ATAO":"Arbitao",
   "TTN":"TITA Project",
   "TAB":"TrustaBit",
   "DEC":"Deciser",
   "ICST":"ICST",
   "GDP":"Goods Digital Passport",
   "FEED":"Feedchain",
   "REW":"Review.Network",
   "MTA":"Mit-Ra",
   "WORK":"Aworker",
   "BXXT":"BitShield",
   "AIUR":"Project Aiur",
   "TZO":"TANZ\u014c",
   "FRND":"Friend",
   "POC":"PocketCon",
   "WU":"WULET",
   "TAUR":"Taurus0x",
   "BCK":"Blockonomics",
   "DXC":"Daox",
   "QEY":"AQWIRE",
   "WAY":"Hiway",
   "LXT":"LEXIT",
   "NRG":"Neurogress",
   "KRC":"KURECOIN",
   "XBIT":"XBIT",
   "TIX":"Blocktix",
   "STELZ":"STEALTH PROJECT",
   "BILL":"TillBilly",
   "TIIM":"TriipMiles",
   "PLAYR":"Playrs",
   "CHART":"BetOnChart",
   "108T":"108 Token",
   "MSMR":"mesmr",
   "GVINE":"Grapevine",
   "NED":"nedscoin",
   "TELA":"Telluria",
   "AUTO COIN":"AutoBlock",
   "BONA":"Bonafi",
   "JNB":"Jinbi Token",
   "REFT":"re:factor",
   "TRW":"Triwer",
   "TICS":"CargoConX",
   "ZUZ":"Coalichain",
   "OBT":"ONe Network",
   "AREF":"AREF",
   "CELR":"Celer Network",
   "GUAR":"Guarium",
   "BCIO":"Blockchain.io",
   "TSB":"TrustBar",
   "LRX":"Layer Protocol",
   "SGAT":"SGAT",
   "IVYN":"Ivyn",
   "GSCP":"GSC Aviation",
   "AXIS":"LaneAxis",
   "TIP":"TIPbot",
   "OPN":"OEL Foundation",
   "HBB":"HabibiCoin",
   "HAWK":"CryptoHawk",
   "BYT":"Bityond",
   "TST":"Trust Platform",
   "TTU":"TaTaTu",
   "ICS":"NOVAcool",
   "JIB":"Jibbit",
   "SP":"SupPorter",
   "GOT":"GoNetwork",
   "PARK":"Parkres",
   "SGT":"SelfieYo",
   "VEO":"Veio",
   "MILC":"MILC",
   "BUD":"Buddy",
   "BUDD":"BUDD TOKEN",
   "FLI":"Floaterium",
   "OZEX":"OZEX",
   "GMB":"GAMB",
   "AITT":"AITrading",
   "QCX":"QuickX Protocol",
   "ZB":"ZeroBank",
   "FDC":"Foodcoin",
   "KBE":"Kryptobits",
   "PDXC":"PDX",
   "DACC":"Decentralized Accessible Content Chain",
   "HYT":"Horyou",
   "GPS":"Triffic",
   "MOOV":"Moovin",
   "WKC":"WANKCOIN",
   "BX8":"BloomX",
   "GG":"Good Game",
   "ENB":"Enumbra",
   "AGLT":"AGROLOT",
   "YOU":"SELFLLERY",
   "CAL":"Caloriecoin",
   "AURUM":"Aurum",
   "RDS":"Reger Diamond",
   "HLC":"Health Monitor",
   "MOOLYA":"moolyacoin",
   "ALE":"Alehub",
   "BUFF":"BUFF",
   "TVA":"Terra Virtua",
   "TXI":"Tixico",
   "WGP":"W Green Pay",
   "CAFECOIN":"CafeCoin",
   "NSP":"NOMAD.space",
   "LBT":"Loan Bit",
   "PVS":"PREVISIONe",
   "CSZ":"CoinSeason",
   "QUID":"Quidli",
   "VANIG":"Vanig",
   "COT":"CoinTour",
   "QCO":"Qravity",
   "TFC":"The Freedom Coin",
   "OPP":"Opporty",
   "UPX":"Upfinex",
   "MIN":"MIN",
   "OPET":"\u00d5petfoundation",
   "GXT":"Game Protocol",
   "XENC":"Xenchain",
   "TXN":"TraXion",
   "SURE":"SURETY.AI",
   "B21":"B21",
   "CCL":"CyClean",
   "DNET":"DeNet",
   "ASQT":"ASQ Protocol",
   "WALL":"WallChain",
   "ZNAQ":"ZNAQ",
   "OJX":"Ojooo",
   "IOTW":"IOTW",
   "BETS":"Betley",
   "Weeve":"Weeve",
   "CPT":"Cryptaur",
   "FSN":"Fusion",
   "HFX":"Health FX",
   "LIL":"Lili",
   "AEN":"Aenco",
   "RFT":"RYFTS",
   "CYG":"Cygnus",
   "WONO":"WONO",
   "ENK":"Enkidu",
   "DEEP":"Deep",
   "UBEX":"Ubex",
   "NBOX":"Unboxed Network",
   "YUT":"Yizoot",
   "DPH":"Digipharm",
   "UNC":"Uncloak",
   "ISR":"Insureum",
   "TFT":"Taskfair",
   "TLU":"Irene Energy",
   "PMTN":"Peer Mountain",
   "SOUND":"Inmusik",
   "MIBO":"miBoodle",
   "Helium":"Helium",
   "URT":"Universal Recognition Token",
   "OBSR":"OBSERVER",
   "FINX":"FINX",
   "ABX":"Arbidex",
   "IRIS":"Iris",
   "CIYA":"CRYPTORIYA",
   "\ud83c\udfb226":"BCG",
   "HAI":"HAI Project",
   "XSR":"Xsure",
   "USAT":"USAT",
   "HYB":"Hybrid Betting",
   "ORV":"Orvium",
   "PERA":"PAYERA",
   "VLT":"ContractVault",
   "APA":"All Public Art",
   "SLP":"SLP",
   "REG":"Registry Blocks",
   "PTRT":"PlaceToRent",
   "MTT":"MulTra",
   "INCX":"INCX",
   "DCC":"Distributed Credit Chain",
   "C8":"Carboneum",
   "CDPT":"Creditor",
   "TAT":"unitalent",
   "SAFE":"SAFE.AD",
   "ICE":"iDice",
   "RCD":"RECORD Foundation",
   "GCT":"GlobeCas",
   "SHPT":"Shipit",
   "ESTATE":"AgentMile",
   "SAM":"SAMFIns",
   "MUXE":"MUXE",
   "IDAP":"idap.io",
   "ICNQ":"Iconiq Lab",
   "BGX":"BGX",
   "AIC":"Akaiito",
   "SVT":"Smart Valley",
   "$OPTI":"OptiToken",
   "JOYS":"JOYS",
   "CRS":"CRYSTALS",
   "IRM":"iRegMed",
   "SRV":"ServAdvisor",
   "ASK":"AllSpark",
   "USE":"Usechain",
   "WEB":"Webcoin",
   "BDB":"Big Data Block",
   "NYN":"NYNJA",
   "KUE":"Kuende",
   "TLNT":"iCasting",
   "LBR":"LaborCrypto",
   "METM":"MetaMorph.pro",
   "XRT":"XRT",
   "STASH":"BitStash",
   "FBET":"FastBet",
   "TRND":"Trends Project",
   "QZ":"Efir.io",
   "XBX":"Bitex",
   "PAN":"Procurean",
   "WINS":"WinStars",
   "LDX":"LOANDEX",
   "UCN":"VerifyUnion",
   "Elrond Network":"Elrond Network",
   "Tenzorum":"Tenzorum",
   "CTKN":"Curaizon",
   "BFDT":"Befund",
   "TYDO":"TYDO",
   "ARAW":"ARAW Token",
   "AQX":"AQUA Intelligence",
   "XPZ":"Properbuz",
   "AGRI":"BlockGrain",
   "CZero Mobility":"CZero Mobility",
   "FFC":"Fluzcoin",
   "CRON":"Cryptocean",
   "EMT":"EasyMINE",
   "NMH":"Namahe",
   "DREP":"DREP",
   "STEEL":"SISHUB",
   "HUM":"Humanscape",
   "ICASH":"iCash",
   "WIT":"WITCOIN",
   "Hypernet":"Hypernet",
   "ZEAL":"Zealeum",
   "DOCT":"DocTailor",
   "DSTT":"Doctor Smart",
   "NYIGDE":"NYiGDE?",
   "SWIT":"Switcoin",
   "CBT":"CommerceBlock",
   "GEN":"DAOstack",
   "SAB":"EventJoin",
   "SPARK":"Sparkster",
   "NUDGE":"Impetus One",
   "ORE":"AIKON",
   "KRX":"Kairos",
   "XBC":"XBrick",
   "SUPX":"SupplyBloc",
   "UMK":"UMKA",
   "OMI":"ECOMI",
   "PBLK":"PayBlok",
   "ELT":"Eloplay",
   "BETT":"Bettium",
   "FNP":"FlipNpik",
   "IDM":"IDMoney",
   "VST":"Vestarin",
   "TONER":"TonerCoin",
   "URUN":"U Run It",
   "REDC":"RedCab",
   "RISK":"Global Risk Exchange",
   "PORT":"Planport",
   "BTU":"BTU Protocol",
   "XBCU":"Bitacium",
   "KODAKCOIN":"KODAKOne",
   "IAT":"Instant Assets Tokens",
   "EMN":"EMINENT",
   "EBYTE":"eByte",
   "EVA":"Eventboost EVA",
   "MMTM":"Momentum",
   "ATTR":"Attrace",
   "GLT":"GlitzKoin",
   "MB":"MonsterBit",
   "FWIN":"FairWin",
   "VTR":"Avatara",
   "FRM":"Firmo",
   "CROSS":"Cross Hedge",
   "BTML":"Bitmillex",
   "HRO":"HERO.org",
   "B2C":"B2AND",
   "MIC":"Dench Music",
   "CIR":"checkitsreal",
   "HCI":"Blockchain Hotels",
   "HUP":"Hupplat",
   "WIZE":"Wizebit",
   "ROBO":"CryptoRobotics",
   "TRVR":"Trivver",
   "HMT":"Hamster Marketplace",
   "CEN":"Centaure",
   "ABDT":"Atlantis Blue",
   "STAY":"Stayawhile",
   "HOSTC":"Hostcoin",
   "FOBS":"Fobscoin",
   "LEN":"Liqnet",
   "ZCN":"Zichain",
   "GSI":"Globex SCI",
   "SPIKE":"Spiking",
   "SEED":"Superbloom",
   "QST":"Cryptonic Universe",
   "GOL":"Goldiam",
   "DIS":"Discovery",
   "AMO":"Amorito",
   "EPIC":"EpigenCare",
   "JOINT":"Joint Ventures",
   "CTM":"Centareum",
   "CNUS":"CoinUs",
   "ECTO":"Open Collectors Network",
   "PVC":"Pulsar",
   "BWX":"Blue Whale",
   "KIMERA":"Kimera",
   "VOSAI":"VOSAI",
   "VIK":"Vikky",
   "SUNEX":"Sun Exchange",
   "ODEEP":"ODEEP TOKEN",
   "VUU":"Vuulr",
   "AX1":"AX1",
   "SRC":"SwissRealCoin",
   "VIVA":"VIVA Coin",
   "MCC":"MyCreditChain",
   "KSS":"Krosscoin",
   "BXX":"Baanx",
   "PCX":"Property Coin",
   "SHA":"Safe Haven",
   "MCN":"mCoin",
   "VRN":"Vernam",
   "NOMO":"Nomopoly",
   "GLX":"GLEDOS",
   "PGN":"Paygine",
   "GREE":"Greenish Coin",
   "PWV":"Peoplewave",
   "WRE":"Wealth Migrate",
   "INV":"Invest in Brokers",
   "SFC":"SafeCrypt",
   "TB COIN":"TimeBox",
   "NUR":"NurseToken",
   "EVENT":"Presale Ventures",
   "XRA":"Xriba",
   "UNIC":"UNIC Advertising Network",
   "SPS":"Sponsy",
   "DTE":"DatEat",
   "CBX":"CHUBEX",
   "VTOS":"VTOS",
   "HIH":"Hi:Health",
   "REOS":"REOS",
   "H3O":"HydroMiner H3O Pre-Sale",
   "GSE":"Gese",
   "WTR":"eWaiter",
   "FABA":"Faba Invest",
   "IRON":"iron Bank Network",
   "CODE":"CodeCoin",
   "GXL":"GixelyCoin",
   "YDY":"Ydentity",
   "PMN":"Permian",
   "NNC":"NNS",
   "CTK":"Cryptyk",
   "JPT":"Jointly",
   "GEX":"GreenX",
   "BZS":"Bazista",
   "GST":"Game Stars",
   "FCC":"flyCARE",
   "RAD":"RAD",
   "BLOCKS":"BlockStorage",
   "WHEN":"WhenHub",
   "IoTBlock":"IoTBlock",
   "DCO":"Discoveroo",
   "FYS":"Fysical",
   "OAR":"Hoard",
   "VID":"VideoCoin",
   "IMU":"imusify",
   "TRIMPO":"Trimpo",
   "BOSE":"BitBose",
   "PCH":"PChain",
   "TLT":"Talenter",
   "CITY":"Smart City Enterprise",
   "RWRD":"Rewards.com",
   "AXT":"Automotive eXchange Token",
   "HWT":"Hyperion Fund",
   "TXO":"Treon",
   "DBCC":"DataBlockchain",
   "Skycoin":"Skycoin",
   "FMT":"Fantasy Market",
   "DESI":"DESICO",
   "OCN":"Poseidon",
   "SCENE":"Cryptoscene",
   "XAC":"AcuteCoin",
   "ICC":"INGOT Coin",
   "ZCH":"ZeCash",
   "YSH":"Fair Ninja",
   "ONE":"Menlo One",
   "ATS":"Authorship",
   "QUAK":"Quake Mining",
   "GMA":"Goldma",
   "ALICE":"Leap With Alice",
   "SLX":"SLATE",
   "HMD":"HOMELEND",
   "AIGO":"Aigo",
   "FINTC":"Fintechnics",
   "ITM":"intimate",
   "DUC":"DUCATUR",
   "CCR":"CryptoCashbackRebate",
   "FTM":"FANTOM",
   "KRYP":"Kryptonium",
   "MVL":"Mass Vehicle Ledger",
   "TOC":"Token Changer",
   "STPZ":"CodeMail",
   "LNW":"Lancer Network",
   "WLO":"Pigzbe",
   "TYPE":"Typerium",
   "SVN":"Svandis",
   "BANX":"Ubanx",
   "XDMC":"MPCX",
   "DYC":"Dylyver",
   "AIGC":"AIGaming",
   "YODSE":"Yodse",
   "UPT":"Undal Technologies",
   "BRC":"Bryllite",
   "OIO":"Online",
   "CryptoCarz":"CryptoCarz",
   "BLCK":"Black Insurance",
   "SSC":"Syntera",
   "ADG":"ADGONOS",
   "FLEX":"TrustedCars FLEX",
   "WBB":"World Bit Bank",
   "GAM":"GrabAMeal",
   "3XD":"3D-Chain",
   "ANK":"Ankorus",
   "CGCX":"CGCX",
   "BMK":"Benchmark",
   "BOLTT":"BolttCoin",
   "BFEX":"Banking Future Exchange",
   "NRM":"Neuromachine",
   "BZNT":"Bezant",
   "PAYO":"CoinPayo",
   "DNC":"DineroCoin",
   "HUS":"HUSSY",
   "EXPR":"Expercoin",
   "Trial Token":"Trial Token",
   "SMARC":"SmartContainers",
   "BGS":"Bugis",
   "JBT":"Jobeum",
   "LIST":"marketLIST",
   "MNR":"Monoreto",
   "CHBR":"CriptoHub",
   "KINWA":"IDGO",
   "BCD":"BitChord",
   "QNT":"Quant Network",
   "YUM":"Yumerium",
   "RBG":"RankingBall",
   "MEDIA":"MEDIA Protocol",
   "CURV":"CryptoCurve",
   "BKBK":"Block Broker",
   "MVID":"monvid",
   "H2PWR":"H2SOL",
   "RBC":"Root Blockchain",
   "CUBO":"Cubomania",
   "HNX":"Humanixr",
   "DGR":"DogRacing",
   "HSHC":"Hash Card",
   "NTVA":"Intiva Token",
   "IQO":"Involve",
   "TICK":"Ticko",
   "GRY":"GRYisPower",
   "ZNX":"ZoneX",
   "HALA":"Hala",
   "SHR":"ShareRing",
   "FEX":"Find.Exchange",
   "EPN":"EPIPHANY",
   "CHEF":"CookUp",
   "DFT":"Delicia",
   "DICE":"Etheroll",
   "AMC":"AMCHART",
   "CEEK":"CEEK VR",
   "BPD":"Bidipass",
   "GREM":"Global REIT",
   "ANX":"COINANX",
   "CRGO":"CargoCoin",
   "RGT":"Retail.Global",
   "CRD":"Credo",
   "CRN":"CareerXon",
   "DOX":"DOX.NETWORK",
   "BIM":"BitImage",
   "NOIZ":"Noiz",
   "MFX":"Modern Finance Chain",
   "FRES":"FRESCO",
   "QKC":"QuarkChain",
   "NOS":"nOS",
   "EQUAD":"Quadrant Protocol",
   "COSX":"Cosmecoin",
   "XOXO":"BITXOXO",
   "VIV":"ViValid",
   "STM":"Streamity",
   "WGD":"WRIO Internet OS",
   "KRW":"Krow Network",
   "LVP":"Leverage Platform",
   "HVE":"UHive",
   "EO":"EO.Trade",
   "EXB":"Extrabit",
   "PKX":"ProKareX",
   "SPOT":"Spotcoin",
   "BMG":"BORNEO",
   "LBA":"Libra Credit",
   "CFND":"Cryptfunder",
   "EVEN":"EVEN Foundation",
   "CPS":"Crosspays",
   "RAC":"Robo Advisor Coin",
   "VU":"Virtual Universe",
   "DICO":"DiCoBlock",
   "OSA":"OSA Decentralized",
   "WEIS":"WeiCrowd",
   "BSSX":"Beyond Seen Screen",
   "WIIX":"WIIX Success Project",
   "TASH":"Smart Trip Platform",
   "OPU":"Opu Labs",
   "URB":"Urbit Data",
   "EPT":"Evident Proof",
   "ZXC":"0xcert",
   "SPRING":"SpringRole",
   "TCOIN":"Talenthon",
   "PRO":"Propy",
   "VRS":"VEIRIS",
   "RAWG":"RAWG",
   "DPX":"DPLAY.GG",
   "GDM":"Guardium",
   "ATPL":"Atlas Platform",
   "LOOT":"Game Loot Network",
   "YRX":"Yuro",
   "POWL":"PowerLoan",
   "SDA":"PreVUE",
   "LQD":"Liquidity.Network",
   "TVC":"Tavitt",
   "HNY":"BitFence",
   "KOT":"Korona Coin",
   "BNTN":"Blocnation",
   "LFE":"London Football Exchange",
   "BLG":"BitleagueCoin",
   "CAR":"CrowdDrive",
   "ANB":"Anubis",
   "PATH":"Path",
   "BRNZ":"BrainerZ",
   "KRUMBLER":"KRUMBLER",
   "GRAY":"VoxelX",
   "DEVX":"Developeo",
   "VEX":"Vexanium",
   "MRC":"MorganCoin",
   "QBIT":"Qilimanjaro",
   "PTS":"PetSource",
   "SMRT":"SMRT",
   "BENEFIT":"Dating With Benefits",
   "YouGov Direct":"YouGov Direct",
   "RELY":"Clairety AI",
   "CRE":"Carry",
   "BASE":"ChronoBase",
   "DTQ":"Dynatiq",
   "EDEX":"Equadex",
   "AST":"Afterschool",
   "CLRS":"Clears",
   "OTC":"Otcrit",
   "SPD":"SPINDLE",
   "CRAD":"CryptoAds Marketplace",
   "GBTC":"GigTricks",
   "WIX":"Wixlar",
   "AQUAX":"iAqua",
   "SCX":"Swachhcoin",
   "MDS":"Midas",
   "COUP":"Coupit",
   "CCCR":"C3",
   "MXM":"MaxiMine",
   "SIX":"SIX.network",
   "TKP":"TOKPIE",
   "MNRY":"Minery",
   "MONP":"Montis",
   "DINO":"DINO Platform",
   "TALAO":"Talao",
   "CAID":"ClearAid",
   "ETY":"Etherty",
   "HOLD":"HOLD",
   "MSLD":"MyShield",
   "ELY":"Elysian",
   "FC":"FaceCoin",
   "ETI":"EtherInc",
   "BFP":"Bond Film Platform",
   "DCNT":"Docnota",
   "GAC":"GladAge",
   "IPG":"IP.Gold",
   "ZETOTOKENS":"ZetoChain",
   "EMQT":"Emotiq",
   "SIN":"Sint",
   "WRT":"White Rabbit",
   "PDATA":"Opiria",
   "EQL":"Librium",
   "LX":"Moonlight",
   "ATLAS":"PeerAtlas",
   "BXY":"Beaxy",
   "WRL":"Wireline",
   "PSK":"Pool of Stake",
   "RDO":"RADIO",
   "SURR":"SurruS",
   "BEC":"BitherCash",
   "TDZ":"Tradelize",
   "RPIL":"RedPill",
   "THOR":"THOR",
   "VLUX":"VLUX",
   "K2G":"Kasko2go",
   "GTA":"GAGAPAY NETWORK",
   "RLZ":"Railz",
   "CAD":"Cardium",
   "IAM":"Bridge Protocol",
   "WBT":"WorldBit",
   "PAVO":"PAVO",
   "XDT":"Dataeum",
   "PHT":"PlayHall",
   "W12":"W12",
   "BOTC":"BotChain",
   "HUYU":"HUYUcoin",
   "STH":"SmartHoldem",
   "NCR":"NCRYPTO Network",
   "NBR":"NOBAR",
   "MND":"Moneda",
   "UCMG":"United Crypto Mining Group",
   "BEL":"Belotto",
   "HZN":"Hazeian",
   "SWA":"Swace",
   "ORO":"Orozu",
   "LEON":"Leonardian",
   "BWC":"BWEX",
   "ENC":"Eniac Network",
   "CHEK":"OnePlusOne",
   "ENTRY":"ENTRY",
   "TWQ":"Tawarruq Token",
   "EGT":"Egretia",
   "CPC":"Cryptonia Poker",
   "ASA":"Asura Coin",
   "EHO":"EHO",
   "KNT":"Kora",
   "IOX":"Coinstocks",
   "PLMT":"Pallium",
   "BHM":"BHOM",
   "PURC":"Peur",
   "YON":"YondoCoin",
   "BLACK":"Blackfolio",
   "BANG":"Bounty Angels",
   "FAS":"Faxport",
   "SAVG":"Savage",
   "PAKKA":"NextPakk",
   "NEST":"NEST",
   "FSC":"Fissacoin",
   "ZIX":"Zeex",
   "OUNA":"OUNA",
   "KAC":"Kachingcoins",
   "9COIN":"GIG9",
   "DRONE":"DEEP AERO",
   "AVG":"AvantGarde Ratings",
   "HDL":"Holdvest",
   "DEED":"Deedcoin",
   "CVT":"R_Block",
   "BIR":"Birake",
   "LUK":"Luckchemy",
   "ITR":"INTRO",
   "NXLS":"Nexusless",
   "TCN":"Tracoin",
   "GLO":"The GlobeToken Project",
   "CST":"CASPER",
   "OHC":"100tokens",
   "BNKR":"Bonkers",
   "ARM":"AdRealm",
   "RLP":"rloop",
   "ETD":"Earthmedz",
   "EDN":"EdenChain",
   "KKN":"Kakushin",
   "QPS":"Qompass",
   "NWP":"NWPSolution",
   "MESH":"BlockMesh",
   "INP":"INSPEM",
   "GOAL":"Goal Bonanza",
   "SHARD":"Shard Coin",
   "HVT":"Hive Power",
   "RGE":"The Rouge Project",
   "CAER":"Caerus Connections",
   "ALX":"Algebraix Data",
   "SENNO":"Senno",
   "PNK":"Kleros",
   "WOLF":"Cashwolf",
   "EAT":"EatMeCoin",
   "AIM":"HighCastle",
   "TSP":"TokenSpeed",
   "DIREC":"DirectHome",
   "NFC":"No Fake Today",
   "RDC":"ROOMDAO",
   "XYO":"XYO Network",
   "SKI":"Skillchain",
   "ICH":"ICOStart",
   "MASP":"Market.space",
   "JAN":"CoinJanitor",
   "NKL":"Nickelcoin",
   "STO":"StokIT",
   "BSCH":"BitSchool",
   "BIDIUM":"BIDIUM",
   "TSR":"TransCrypt",
   "PROD":"Darenta",
   "UKT":"uKit",
   "OOT":"Utrum",
   "HRZN":"Horizon Communications",
   "INVOX":"Invox Finance",
   "AXS":"AXenS",
   "ACA":"ACA NETWORK",
   "SPCO":"Sportco",
   "ONST":"OnStellar",
   "CU":"Coinnup",
   "TOG":"Zonafide",
   "NOIA":"NOIA Network",
   "AMBT":"Ambit",
   "SQOIN":"StasyQ",
   "XDAC":"xDAC",
   "MXD":"MaxData",
   "WIRE":"Social Wallet",
   "NBAI":"Nebula AI",
   "VRF":"Verifier",
   "FROIN":"froshfeel",
   "MIL":"Solomonstouch",
   "STRN":"Startions",
   "NUK":"Nukleus",
   "BITE":"BiteCoin Network",
   "UBC":"Ubcoin",
   "MTE":"Mthereum",
   "QYK":"QYKBAR",
   "OVT":"OVATO",
   "MEDS":"FAIMA",
   "SHIP":"ShipChain",
   "BLU":"Blupass",
   "VEND":"Vendex",
   "OFN":"OpenFinance Network",
   "BAS":"BaaSid",
   "LIC":"LoopIn",
   "PTN":"PeatCoin",
   "SAVE":"Save Token",
   "WEE":"WeevoCity",
   "SILK":"SilkChain",
   "DGX":"DigiDex",
   "APS":"APRES",
   "SATURN":"Saturn Protocol",
   "SEHR":"SSOT Health Foundation",
   "AKSH":"Akash Network",
   "CARMEL":"Carmel",
   "FTW":"FTW",
   "CPTX":"Crypterra",
   "XRR":"XchangeRate",
   "XPST":"PokerSports",
   "RTE":"Rate3 Network",
   "NTS":"Nauticus",
   "SHB":"Shopiblock",
   "MRS":"Marginless",
   "EXON":"EXPORT.ONLINE",
   "ENQ":"Enecuum",
   "SKT":"Skytale",
   "MVP":"Merculet",
   "OLT":"OneLedger",
   "NGRX":"NagriCoin",
   "DMC":"DarcMatter Coin",
   "FR8":"Fr8 Network",
   "CR8":"Creator.AI",
   "FTEC":"FTEC",
   "OFCR":"CryptoPolice",
   "DTX":"DatabrokerDAO",
   "ANY":"Anything App",
   "WDSC":"Woodscoin",
   "All Of Art":"All Of Art",
   "NFN":"Nafen",
   "VPE":"Vipe",
   "FTO":"Fractal Token",
   "PLAY":"SmartBillions",
   "CQR":"Coinquiztador",
   "ABLE":"ABLE Project",
   "ABCS":"AbacasXchange",
   "LPK":"L-Pesa Microfinance",
   "MYDFS":"MyDFS",
   "DTN":"Datareum",
   "UCHT":"Uchit",
   "777":"777.Bingo",
   "PVX":"PayVX",
   "CHT":"charitySPACE",
   "HIT":"HIPE",
   "REFER":"SmartRefer",
   "Eternal Trusts":"Eternal Trusts",
   "ZEEW":"ZEEW",
   "MHP":"MedicoHealth",
   "CTT":"CodeTract",
   "ECHO":"EvoChain",
   "AGAS":"ARQUTE G.A.S",
   "Hedera Hashgraph":"Hedera Hashgraph",
   "LOK":"Loki",
   "WPT":"Worldopoly",
   "FPWR":"FIRETOKEN",
   "FLUX":"FLUX",
   "ADSI":"AdSigma",
   "BitProperty":"BitProperty",
   "DTA":"DeepToken",
   "CODX":"Codex Protocol",
   "DANK":"Dank Signals",
   "CHR":"CHERR.IO",
   "PNT":"Pointium",
   "RBN":"Rebons",
   "WBC":"Webercoin",
   "ODY":"Odyfund",
   "TPG":"Tripago",
   "ZSC":"ZeroState",
   "PAKT":"PacketMining",
   "KON":"Konios Project",
   "PATO":"Profede",
   "VANY":"Vanywhere",
   "VIEW":"Viewly",
   "AGS":"Sol-Invictus",
   "EMA":"EMMARES",
   "AIRX":"AIREXE",
   "KOI":"Koios AI",
   "KSP":"KeepSafePay",
   "TIM":"TIM",
   "VBEO":"Vibeo",
   "NKN":"NKN",
   "PENT":"PentaCore",
   "SST":"Smart Signals",
   "SPIN":"CryptoSlots",
   "Sovrin":"Sovrin",
   "DBT":"DeskBell Chain",
   "WTL":"Welltrado",
   "TMT":"ToTheMoon",
   "ALF":"Aeternum",
   "KAT":"Katalyse",
   "VRA":"Verasity",
   "SHOP":"Shopin",
   "DREAM":"DreamTeam",
   "ANTI":"ANTIMASS",
   "BTF":"Blockchain Traded Fund",
   "EMB":"Block Collider",
   "T2T":"Traceto",
   "IAG":"Iagon",
   "MITX":"Morpheus Labs",
   "SYNT":"Synthetics AI",
   "CNET":"ContractNet",
   "LOVE":"LOVE Token",
   "MEA":"altumea",
   "SHO":"ShoCoin",
   "MCART":"mCart Protocol",
   "SNR":"SONDER",
   "DBR":"Dbrain",
   "WEL":"MeetnGreetMe",
   "OTT":"OneToTwo",
   "ARGO":"ARGO Reality",
   "TRG":"Triggmine",
   "PTI":"Paytomat",
   "DLSD":"TheDealCoin",
   "HGO":"HireGo",
   "CYL":"Crystal Token",
   "ALT":"Altair VR",
   "ZPR":"ZPER",
   "VNN":"Blockchain Ventureon",
   "ARX":"ArtEx Global",
   "YLD":"Yield Coin",
   "MORPH":"Morpheus.Network",
   "GGT":"GramGold",
   "OTCE":"OTC Exchange",
   "BAL":"Browsers Lab",
   "ELI":"Eligma",
   "CCC":"Blockshipping",
   "BLB":"BITLAB",
   "BUNNY":"BunnyToken",
   "GBT":"Globatalent",
   "YSN":"ySign",
   "CHAR":"BCharity",
   "IGCT":"Golden Currency",
   "NWS":"2100NEWS",
   "LAB":"Tokenlab",
   "MVC":"MovieChain",
   "BTRN":"Biotron",
   "R3 Security":"R3 Security",
   "TMX":"Trademindx",
   "ARR":"ARROUND",
   "MNX":"Minexcoin",
   "MOS":"MOS",
   "Mosaic":"Mosaic",
   "INTOKEN":"Inbot",
   "GO":"GOclc",
   "BAAP":"BaapPay",
   "TPLAY":"TruePlay",
   "UDOO":"Howdoo",
   "RAVE":"RAVELOUS",
   "TNG":"Tradingene",
   "MTCN":"Multiven",
   "YTN":"YouToken",
   "XKN":"KINEKT Terminals",
   "EHF":"eHealth First",
   "BRONIXICO":"Bronix",
   "STBT":"Stocks.Bet",
   "DIZ":"Discourze",
   "LAX":"LAPO Blockchain",
   "GOC":"GoChain",
   "VIVID":"Vivid",
   "ENLTE":"Enlte",
   "ORGN":"Oris.Space",
   "MTO":"MONETO",
   "EPC":"Energy Premier",
   "LND":"Lendingblock",
   "CUZ":"Cool Cousin",
   "VRX":"Viarium",
   "UAC":"UbiatarPlay",
   "BALT":"BalticFund",
   "VIT":"Vitavisor",
   "COREX":"Corex",
   "CRTL":"Cartel",
   "DATX":"DATx",
   "ORST":"ORS Group",
   "WMK":"Wemark",
   "RDL":"Riddle Casino",
   "UPP":"Sentinel Protocol",
   "KEEP":"Keep Network",
   "DML":"Decentralized Machine Learning",
   "PLAT":"BitGuild",
   "IOTX":"IoTeX",
   "GLDY":"BuzzShow",
   "MON":"MillionCoin",
   "QFS":"Quifas",
   "CSM":"Consentium",
   "CAB":"BitCab",
   "CANDY":"UnicornGo",
   "MTV":"Multiversum",
   "EVT":"Verity",
   "SENC":"Sentinel Chain",
   "SPTX":"SprintX",
   "YEED":"YGGDRASH",
   "SWAPY":"Swapy Network",
   "FDU":"FIDUXA",
   "CGE":"Concierge.io",
   "NBX":"Noxbox",
   "CMCT":"Crowd Machine",
   "I2":"IIOTTEL",
   "TRY":"Traderly",
   "QWS":"Qwasder",
   "TBT":"TradeBit",
   "APOD":"AirPod",
   "CRTK":"CrowdToken",
   "RMOB":"RewardMob eSports Rewards Platform",
   "LOFF":"LivingOffset",
   "EDR":"Endor",
   "SKYFT":"SKYFchain",
   "LDC":"LeadCoin",
   "PAT":"Pangea",
   "MFT":"Mainframe",
   "BBO":"Bigbom Eco",
   "DFZ":"Dafzo",
   "KCH":"KahnChat",
   "NEXO":"Nexo",
   "TGAME":"Truegame",
   "DTZ":"Digitize",
   "FLIX":"CryptoFlix",
   "REDL":"Red Lanterns",
   "ROX":"Robotina",
   "KEP":"Kepler Technologies",
   "MRDS":"Myriads.IO",
   "BEX":"BehaviourExchange",
   "DEV":"Devnetwork",
   "IOLITE":"iOlite",
   "IRYO":"Iryo",
   "IPSX":"IP Exchange",
   "EXMR":"EXMR MONERO",
   "REME":"REME-Coin",
   "ATMI":"Atonomi",
   "FIN":"Finom",
   "VOL":"Volans",
   "TILX":"TILX",
   "SBET":"Sunnybet",
   "IMT":"MoneyToken",
   "EEC":"EnLedger",
   "AIX":"Aigang",
   "UNT":"Unity Coin",
   "KTM":"Krypteum",
   "NQBX":"NiQBiX",
   "DIG":"DIG Coin",
   "FGD":"Fairgrounds",
   "PNG":"Ping Chain",
   "CMN":"Cryptomon",
   "BTNT":"BitNautic",
   "QRX":"Qurrex",
   "DNTX":"Dentix",
   "VENDI":"VendiCoins",
   "SAAS":"Saascoin",
   "KLT":"KELTA",
   "GES":"Galaxy eSolutions",
   "SEELE":"Seele",
   "NKMS":"NuCrypher",
   "CDT":"CoinDash",
   "BGL":"buglab",
   "EPM":"Epocum",
   "VIO":"Vio",
   "LCX":"Lescovex",
   "MTZ":"Monetizr",
   "XinFin":"XinFin",
   "ECOM":"Omnitude",
   "TOSS":"PROOF OF TOSS",
   "ADBL":"Adblurb",
   "KRL":"Kryll",
   "XAP":"Appics",
   "SGV":"SGV-G Technology",
   "ECHG":"Echarge.work",
   "SFN":"Safein",
   "IAHC":"IAMHERO",
   "BNST":"Basis Neuro",
   "PITCH":"Pitch",
   "VDOC":"dutyof.care",
   "BLS":"Bitlumens",
   "XTRD":"XTRADE",
   "BITCAR":"BitCar",
   "CNC":"eCoinomic",
   "JOY":"JOLYY",
   "SHK":"iShook",
   "DWT":"DeepWater Systems",
   "XMOO":"MOO Token Sale",
   "BEAT":"BEAT",
   "UFT":"ufoodo",
   "DNO":"Denaro",
   "EPOS":"EPOS",
   "GLC":"Granite",
   "DAV":"DAV Network",
   "BLXS":"Blockscart",
   "TCO":"ThinkCoin",
   "GMBC":"Gamblica",
   "TRVL":"TravelBlock",
   "SAT":"Sphere Social Network",
   "EROIY":"Eroiy",
   "FRZ":"FreeZone",
   "LCS":"LocalCoinSwap",
   "PLAZA":"Plaza Systems",
   "CLIN":"Clinicoin",
   "PLK":"PLAAK",
   "ALTX":"Alttex",
   "MIO":"Miner One",
   "GIF":"GIF by SOCIFI",
   "PORNX":"PORNX Project",
   "THT":"Tradershub",
   "BINK":"BINKD",
   "FDZ":"Friendz",
   "NIC":"ICONIC",
   "MTR":"ModulTrade",
   "LYK":"Loyakk",
   "ACAD":"AcademyCoin",
   "ICOP":"ICO Pass",
   "BETHER":"Bethereum",
   "DAPG":"DapCash",
   "ZCO":"Zebi",
   "VAST":"Votem",
   "RLTY":"SMARTRealty",
   "IMGZ":"Imigize",
   "JACK":"EtherJack",
   "PMNT":"Paymon",
   "ESCP":"ESCAPE TOKEN",
   "VOCO":"Provoco",
   "ANGEL":"Crowd for Angels",
   "GXVC":"Genevi\u00e8ve VC",
   "WT":"WORLD WIFI",
   "DIW":"DIW Token",
   "PYPL":"PolicyPal Network",
   "BLE":"Blend",
   "UBT":"Unibright",
   "HYC":"HydroCoin",
   "HBZ":"Helbiz",
   "KLS":"Kleos",
   "PPC":"Peercoin",
   "ARD":"Accord",
   "CBC":"CashBag",
   "OTP":"OTPPAY",
   "VLD":"VALID",
   "TDH":"TrustedHealth",
   "CORL":"Corl",
   "FOXT":"Fox Trading",
   "J8T":"JET8",
   "DOCK":"dock.io",
   "JCNXXX":"Jizzcoins",
   "VGC":"Vooglue",
   "PPOVR":"POVCoin",
   "EHB":"EHAB",
   "SME":"Starmine",
   "TERN":"Ternio",
   "HOT":"Holo",
   "CARCO":"CarCo",
   "SEAL":"Seal",
   "DOR":"Dorado",
   "CET":"CredibleToken",
   "PON":"Ponder Gold",
   "FTR":"Futourist",
   "FUNDZ":"FundFantasy",
   "HGS":"HashGains",
   "KRO":"KROPS",
   "HTLH":"Health Nexus",
   "HAN":"HAN Coin",
   "MOR":"Moria",
   "HYD":"Hyde & Co",
   "ZPT":"Zeepin",
   "PLAN":"Plancoin",
   "OMX":"Project Shivom",
   "MOG":"Massive Online Gambling",
   "SFU":"Saifu",
   "FRG":"The Forge Network",
   "GNCT":"GN Compass",
   "BIS":"Bitcoinus",
   "MCU":"MediChain",
   "IPC":"PAYSURA",
   "FAC":"FACHAIN",
   "SGP":"SGPay",
   "TUB":"Tubig",
   "DOL":"Dolos",
   "BITTO":"Bitto Exchange",
   "GIC":"Global ICO Fund",
   "TEN":"Tokenomy",
   "MGS":"The Magnus Collective",
   "CARE":"CareX",
   "FOUR":"The 4th Pillar",
   "P2PS":"P2P Solutions Foundation",
   "CCA":"CCA: Composite Cylinders Advanced",
   "OZT":"Flashmoni",
   "DEEX":"Deex",
   "GEM":"Gems",
   "ATON":"Further Network",
   "RHOC":"Rchain",
   "FRU":"FruoCoin",
   "FINE":"FineCoin",
   "BFN":"BlockFollow",
   "BITS":"Bitsoko",
   "MVU":"MEvU",
   "IMV":"ImmVRse",
   "MTC":"Docademic",
   "OAK":"Acorn Collective",
   "DNN":"Decentralized News Network",
   "SHPING":"Shping",
   "BMT":"BMChain",
   "GRAIN":"Grain",
   "HACK":"The HACK Fund",
   "STC":"Stockchain Global",
   "COTI":"COTI",
   "ONL":"On.Live",
   "MAVRO":"MAVRO",
   "EWM":"Electron World Money",
   "TND":"Trendit",
   "VITO":"VISO",
   "AFLC":"AffiliateCoin",
   "ZIL":"ZILLA",
   "ADM":"ADAMANT Messenger",
   "MDL":"MDL Talent Hub",
   "VTP":"Vestopia",
   "JWC":"JWC Blockchain Ventures",
   "VXD":"Velix.ID",
   "CRNC":"Current",
   "TAXI":"A2B Taxi",
   "CXO":"CargoX",
   "UNIT":"Unilot",
   "PART":"Particl",
   "ESS":"Essentia",
   "UMT":"Bubbletone",
   "FACE":"Faceter",
   "DXT":"Datawallet",
   "DSCP":"DISCIPLINA Project by TeachMePlease",
   "LWF":"Local World Forwarders",
   "BRETT":"EiraCube",
   "APLC":"CinemaWell",
   "FRAS":"Frasindo",
   "TRU":"Tru Reputation Network",
   "BKL":"Baikalika",
   "ELEC":"Electrify.Asia",
   "MWAT":"Restart Energy",
   "BOT":"BotGaming",
   "ESB":"ENS.BID",
   "GLS":"Green List Standard",
   "ORIGIN TOKEN":"Origin Protocol",
   "BBX":"BlockBits",
   "OLXA":"OLXA",
   "TOMO":"TomoCoin",
   "ECOS":"ECOS",
   "AMN":"Amon",
   "BFT":"Blockfreight",
   "CRC":"CrowdCoin",
   "AXP":"aXpire",
   "HDC":"HEDGECONNECT",
   "LABO":"LABO",
   "CAPP":"Cappasity",
   "WMC":"Weekend Millionaires Club",
   "RITM":"BIORITMAI",
   "SVD":"savedroid",
   "LGO":"Legolas Exchange",
   "TRAK":"TrakInvest",
   "TRD":"Triumland",
   "EKH":"eKash",
   "SHARE":"Vyral",
   "CRWT":"CRWD Network",
   "YBK":"YourBlock",
   "BITMOND":"BITMOND",
   "XFM":"XferMoney",
   "ODM":"ODEM",
   "ABT":"ArcBlock",
   "BRF":"Bitrace",
   "FEM":"FemaleToken",
   "MCH":"Machtcoin",
   "CNB":"Canabio",
   "NCC":"Neurochain",
   "CHA":"Crypto Hub Academy",
   "ETA":"Etheera",
   "GBC":"Gold Bits Coin",
   "EPO":"EPOCH Blockchain",
   "MLC":"FLOGmall",
   "WELL":"WELL",
   "SHC":"Shareel",
   "TUDOR":"TudorPAY",
   "LPX":"LoopX",
   "TAY":"Taylor",
   "KNW":"Knowledge",
   "TWN":"TheWorldNews",
   "ETHIX":"EthicHub",
   "W2TW":"Water to the World",
   "TEAM":"TokenStars TEAM",
   "BPT":"Blockport",
   "BHT":"BitHub",
   "ELA":"Elastos",
   "GENE":"PARKGENE",
   "SHVR":"Shivers",
   "CHIP":"RealCasino",
   "EZT":"EZPOS",
   "EEE":"Elementh",
   "RLS":"Reales Coin",
   "GLBX":"Globo",
   "TTP":"Tuk Tuk Pass",
   "ERA":"Erachain",
   "ATF":"AlgoTradingFUN",
   "LMN":"Liminality",
   "FLOT":"Fire Lotto",
   "ERT":"eSports",
   "MILE":"SnagRide",
   "BUILDCOIN":"BUILDCoin",
   "SMQ":"Simdaq Crowdsale",
   "DGTX":"Digitex",
   "GTR":"GTurbo",
   "XTRA":"Extra Credit",
   "BURC":"BURON",
   "TFD":"TE-FOOD",
   "NPER":"NPER",
   "MZG":"Moozicore",
   "QURO":"Qurito",
   "PET":"KeepPet",
   "PCO":"Pingvalue",
   "MANGO":"Mango Startups",
   "HELP":"GoHelpFund",
   "MNT":"Monartis",
   "GNC":"Garnet",
   "BEN":"BitCoen",
   "HKY":"Hicky",
   "TKY":"TheKEY",
   "ADH":"AdHive",
   "DOC":"Dochain",
   "BPN":"beepnow",
   "TLN":"TokenLend",
   "VAR":"VARcrypt",
   "REAL ESTATE TOKEN":"Propify",
   "TTV":"TV-TWO",
   "HAV":"Havven",
   "SCASH":"SHIFT.cash",
   "VSA":"Vesa Token",
   "HNR":"Honor",
   "TUT":"Tutellus",
   "TOPIA":"TopiaCoin",
   "TILE":"Loomia",
   "TECTUM":"Cryptectum",
   "XTC":"Staking Coin",
   "HORSE":"Ethorse",
   "BMLT":"Blockchain Email Token",
   "CTN":"Crypto Trust Network",
   "NCT":"PolySwarm",
   "REPU":"REPU",
   "ASTOR":"AstorGame",
   "TRF":"TravelFlex",
   "HHEM":"Healthureum",
   "GRO":"Gron Digital",
   "SPEND":"MoxyOne",
   "CCOIN":"Creditcoin on FLATLAY",
   "PSC":"Phoscoin",
   "3DT":"3DToken",
   "AMT":"Acumen",
   "CSD":"Coinseed",
   "PLT":"PlayBets",
   "KZ":"KZCoin",
   "FT":"Fabric Token",
   "PKC":"PikcioChain",
   "CFUN":"CFun",
   "BMX":"Bitmart",
   "REC":"REcoin",
   "ARC":"Arcade City",
   "CNOD":"Cryptonod",
   "TT":"TravelChain Project",
   "DAE":"Apollo DAE",
   "SAFT":"Sun Fund",
   "RANK":"RANK",
   "MAD":"Madnetwork",
   "SPN":"Sapien",
   "TNS":"Transcodium",
   "Aston":"Aston",
   "DTC":"DateCoin",
   "QTCT":"Quantocoin",
   "DDT":"DaddyToken",
   "MIM":"MimiCoin",
   "RAG":"RANGERCOIN",
   "MMT":"Momenteum",
   "QLC":"Qlink",
   "ELL":"Ellcrys",
   "RVC":"Reversalcoin",
   "RUC":"RuCoin",
   "IRB":"IronBlock",
   "XBP":"BlitzPredict",
   "Scoin":"Scoin",
   "MOON":"Moonlighting",
   "AKR":"AkroCoin",
   "FDM":"Freedom Streaming",
   "NIL":"Nilecoin",
   "DOLC":"DOLECOIN",
   "MDC":"MyMedis.IN",
   "ITC":"Giftz.io",
   "WEARE":"WeAre Ecosystem",
   "OKOIN":"VR Platform OKO",
   "AALM":"ALMBank",
   "COIN":"Coinvest",
   "VOXXO":"VOXXO",
   "ACO":"AMPLE! Coin",
   "BETR":"BetterBetting",
   "SCT":"Soma",
   "GIZA":"Giza Device",
   "ISP":"Cederis",
   "TPZ":"TradePlayz",
   "VIN":"VinChain",
   "RVA":"Real Value Coin",
   "CS":"CREDITS",
   "HBC":"HABRICKS COIN",
   "SFI":"Sficoin",
   "CYPHER":"Cypherium",
   "LINE":"Lineage Project",
   "MLD":"moldcoin",
   "BTO":"Bottos",
   "KYT":"Keyrpto",
   "SHRP":"Sharpay",
   "NTF":"NextyCoin",
   "EIGC":"Eigencoin",
   "AUR":"AurumCoin",
   "KEYS":"KEYS",
   "ATMT":"ATMToken",
   "PINNS":"Pocketinns",
   "DVLP":"DVLP Coin",
   "XMX":"XmasCoin",
   "ORCA":"ORCA Alliance",
   "CTF":"CryptoTask",
   "CNN":"Connect Coin",
   "ZPN":"Zpay Network",
   "ET4":"Eticket4",
   "BIT":"BitRewards",
   "COR":"Corion Platform",
   "HUR":"Hurify",
   "BOOM":"BoomBay Exchange",
   "JSE":"JSEcoin",
   "FOR":"ForceNet",
   "LCT":"LendConnect",
   "DCI":"DeCoin",
   "GIL":"Gilgamesh",
   "PROPS":"PROPS",
   "OTN":"Open Trading Network",
   "LIX":"Elixir Platform",
   "ENET":"ENET Network",
   "AVE":"AVESTA",
   "GEZ":"GEZ",
   "SKRP":"Skraps",
   "IRDM":"InRiddim",
   "Allend":"Allend",
   "CARD":"Cardstack",
   "OFT":"OFID",
   "CNF":"Coinfer",
   "RXL":"RxEAL",
   "VIOLA":"Viola.AI",
   "RLD":"Real Land",
   "PRSC":"Parsec Frontiers",
   "ADI":"Aditus",
   "Mining Solutions":"Mining Solutions",
   "RXT":"Reipex",
   "RLX":"Relex",
   "PPMT":"Patriot Project Mall",
   "CSCO":"CrediSco",
   "SCI":"Science Blockchain",
   "IQN":"IQeon",
   "The Kudos Project":"The Kudos Project",
   "PM7":"PM7",
   "NODE":"Node",
   "STEC":"Sintec",
   "CCOS":"CrowdCoinage",
   "VZT":"Vezt",
   "SAL":"SalesHustler",
   "SOCX":"SocialX",
   "SCH":"Skychain",
   "NEXT":"NEXT.exchange",
   "ASC":"Anonymous Service Chain",
   "MZC":"MyMazzu",
   "AriseBank":"AriseBank",
   "ARTIS":"Artis Turba",
   "QUA":"QUASA",
   "XCLR":"ClearCoin",
   "XIR":"Xirkle",
   "LYM":"Lympo",
   "BBCOIN":"TraDove",
   "RMT":"SureRemit",
   "GPT":"TokenGo",
   "BERG":"BergmannOS",
   "LAN":"FreelancerCoin",
   "BNET":"Bitnet Token",
   "VOLK":"Volk",
   "KRI":"Krios",
   "GMT":"Gamity",
   "ECAPITAL":"ECAPITAL",
   "CV":"carVertical",
   "Noku":"Noku",
   "IPL":"InsurePal",
   "BUBO":"Budbo",
   "DIMCOIN":"DIMPAY",
   "XUV":"XUV Coin",
   "OPA":"OpenAssets",
   "NVB":"Native Video Box",
   "NTOK":"NTOK",
   "BLQ":"BLAQ",
   "BETEX":"BETEX",
   "ORI":"Origami Network",
   "BEEF":"BeefCoin",
   "FIT":"FAST INVEST",
   "ZIPT":"Zipper",
   "GRP":"Graphene Power",
   "TKA":"TOKIA",
   "VRM":"VeriME",
   "HTKN":"HoToKeN",
   "APH":"Aphelion",
   "DCX":"DCX",
   "GRV":"Gravel Coin",
   "LION":"CoinLion",
   "RNT":"OneRoot",
   "WAT":"Universal Brand",
   "MNW":"Mining now",
   "BITFERRY":"BitFerry",
   "88 COIN":"88 Coin",
   "USH":"Hush",
   "MOVE":"Movement App",
   "ANYCOIN":"SurPle",
   "IC3":"IC3 Cubes",
   "MCBC":"MEDICOIN",
   "NC":"NetCents",
   "XMC":"StockBlock",
   "CGCOIN":"Genie",
   "EHH":"eHarvestHub",
   "MIND":"MindSports",
   "RVL":"REVOIL",
   "HIVE":"blockhive",
   "CHF":"BactoAlarm",
   "TP":"Take Profit",
   "NU":"NetworkUnits",
   "IBET":"Cryptoibet",
   "VRT":"VRT World",
   "STN":"Steneum Coin",
   "UNX":"Unix Coin",
   "FRCT":"Farst Network",
   "STK":"STK",
   "DTRC":"Datarius",
   "AEC":"Emarat Coin",
   "MJT":"Majato Project",
   "QMT":"Qilin.Market",
   "CPY":"COPYTRACK",
   "MYTC":"mytime",
   "HRBT":"HireBits",
   "SQEX":"Squarex",
   "ZVD":"Cherepovets piperolling plant",
   "BICO":"Bico",
   "VHL":"VALHALLA",
   "DLBX":"DealBox",
   "RPT":"Real Property Token",
   "CAJUTEL":"Cajutel Sarl",
   "LST":"LendingStar",
   "ANGL":"Angel Token",
   "LET":"Linkeye",
   "STUB":"Stubba",
   "EVE":"Devery",
   "GIG":"GigEcoin",
   "CPP":"Cryptopus",
   "TBCH":"TechBench",
   "LYT":"Lytictail",
   "CUBE":"Cube",
   "CLICK":"Clickle",
   "IGNT":"IGNITE RATINGS",
   "NVT":"Naviaddress",
   "ELP":"ELPIS",
   "SETH":"SETHER",
   "SQR":"Squeezer",
   "CKEY":"CryptoBnB",
   "BITCAP":"BITCAPTERA",
   "SLVT":"Silvertoken",
   "PXT":"PROPX NanoChain",
   "BOUNTIE":"Bountie",
   "GPCCT":"GPCC",
   "THETA":"Theta Network",
   "GTO":"GIFTO",
   "UST":"Uservice",
   "DRC":"Darico",
   "REPUX":"RepuX",
   "BEZ":"Bezop",
   "TRQ":"TORQALL",
   "DIGIT":"Digitcoin",
   "BALI":"Bali Coin",
   "CSL":"Consolo",
   "KALA":"Kala",
   "EBC":"EBCOIN",
   "NEWS":"ReporterCommunity",
   "WBD":"1WorldBlockchain",
   "WPC":"World Peace Coin",
   "FR":"Fortitude Ranch",
   "EMC":"Emiratecoin",
   "DAWQ":"DAWQ",
   "XDRAC":"Drac",
   "XWIN":"XWIN CryptoBet",
   "TWEX":"Tag World Exchange",
   "ZIG":"Ziggurat Token",
   "ALS":"CryptoAlias",
   "Herdius":"Herdius",
   "GEA":"GOLDEA",
   "IDS":"Biometrids",
   "TKLN":"Taklimakan Network",
   "ASTR":"ASTRcoin",
   "SAF":"Safinus",
   "MISC":"Misscoin",
   "HADE":"HPAY Coin",
   "FPT":"FamilyPoints",
   "ELG":"Elige.re",
   "TKN":"TokenCard",
   "GIFT":"Gifttoken",
   "CHP":"CoinPoker",
   "ELC":"ELCoin",
   "CHX":"CHEX",
   "ABYSS":"The Abyss",
   "CPL":"Coinplace",
   "SANTA":"SANTA",
   "PRK":"ParkApp",
   "BULL":"BullToken",
   "GCP":"Globcoin",
   "DMT":"Dopameme",
   "NTK":"Nettok",
   "PBQ":"PUBLIQ",
   "TEL":"Telcoin",
   "XCH":"Xchainge",
   "CharityProject":"CharityProject",
   "VIOX":"Vionex",
   "ZANGLL":"ZANGLL",
   "CTG":"CottageCoin",
   "PYT":"Payfrit RMS",
   "AUDT":"Auditchain",
   "AGI":"SingularityNET",
   "TeleX AI":"TeleX AI",
   "DTT":"Data Trading",
   "BLN":"Bolenum",
   "OBZ":"Obizcoin",
   "ALG":"Algory",
   "EQB":"Equibit",
   "CAN":"CanYa",
   "ZOD":"Zodiaq",
   "RSN":"Raison",
   "EXY":"Experty",
   "ENVIENTA":"ENVIENTA",
   "BBRT":"Block Bank",
   "QRO":"Qorio",
   "CVER":"CVerification",
   "Metta":"Metta",
   "TokenBnk":"TokenBnk",
   "STAC":"CoinStarter",
   "PUREAir Coin":"PUREAir Coin",
   "HIG":"Ethereum High",
   "PayAll":"PayAll",
   "ZipCoin":"ZipCoin",
   "Pave":"Pave",
   "TNB":"Time New Bank",
   "CRYO":"CryoGen",
   "RBIT":"Rhovit",
   "LUC":"Play2Live",
   "SPORTIENCE":"Sportience",
   "HADA":"Hada DBank",
   "Feeed. Fresh Democratic Fundraising":"Feeed. Fresh Democratic Fundraising",
   "ADB":"Adbank",
   "TWNKL":"Rainbow Currency",
   "SKYE":"Skye Properties",
   "First Token Asia":"First Token Asia",
   "ATRIX":"Atrix",
   "DHT":"DeHedge",
   "SRN":"Sirin Labs",
   "TON":"TontineTrust",
   "IJPROJECT":"Idea Jump",
   "AET":"AfterEther",
   "TCASH":"EtherFlyer",
   "BNPT":"Bitplus Network",
   "COFI":"CoinFi",
   "HBY":"Herby",
   "TPAY":"TokenPay",
   "BLT":"Branche",
   "OMT":"Omega One",
   "AMLT":"AMLT by Coinfirm",
   "RMC":"Remechain",
   "BillPoker":"BillPoker",
   "KYC":"KYC.Legal",
   "Epsilon":"Epsilon",
   "CJT":"ConnectJob",
   "TOKENLOYALTY.IO":"TokenLoyalty",
   "ALFA":"AlfaToken",
   "Bitcoin Quick":"Bitcoin Quick",
   "Carderion":"Carderion",
   "KSC":"KStarCoin",
   "KELA":"KELA",
   "FXN":"FoxCasino",
   "PDT":"AssetBase",
   "HOMNI":"Homni",
   "ETK":"Energi Token",
   "EFIC":"FIC Network",
   "PDI ":"Pindify",
   "STAMP":"Stampify",
   "BRD":"Bread",
   "WABI":"WaBi",
   "MGT, MGC":"Mingo",
   "HRB":"Harbour DAO",
   "ATFS":"ATFS Project",
   "ENV":"envion",
   "TAU":"Lamden",
   "MFL":"McFly.aero",
   "UTT":"United Traders",
   "SRNT":"Serenity",
   "VRBTC":"VRBTC",
   "NDV":"Nedviga",
   "CEL":"Celsius",
   "SHP":"Shopeo",
   "VEC":"Vectorspace",
   "MIRA":"Mira",
   "FUND":"FundCoin",
   "VLR":"Valorem Foundation",
   "LVD":"Luven Diagnostic",
   "FINC":"FintechFans",
   "CDX":"CEDEX",
   "ALB":"AlchemyByte",
   "REXX":"Rexpax",
   "MTN":"Medicalchain",
   "TRS":"TraderStars.io",
   "TIO":"Tio Tour Guides",
   "ATKN":"A-TOKEN",
   "IMC":"Immune Coin",
   "BCO":"Bananacoin",
   "FTX":"FintruX",
   "TTR":"Tetarise",
   "BITOK":"Bitok Dice",
   "Tracor Network":"Tracor Network",
   "TOURCOIN":"TourCoin",
   "Flowfeed":"Flowfeed",
   "BNS":"Blockchain Neural System",
   "ZAB":"ZABERcoin",
   "AID":"AidCoin",
   "SPA":"Spacoin",
   "FLUZ":"FluzFluz",
   "BENJA":"BenjaCoin",
   "Synapse Market":"Synapse Market",
   "GAI":"GraphGrail Ai",
   "AC":"AC",
   "PEF":"Prosume Energy",
   "SLOGN":"SLOGN Logistics",
   "CCCoin LLC":"CCCoin LLC",
   "TEU":"300cubits",
   "FINS":"FinShi",
   "ZRX":"0x",
   "ICOS":"ICOS",
   "HDG":"Hedge Token",
   "ADL":"Adelphoi",
   "BETX":"betboxAI",
   "Hagglin":"Hagglin",
   "BUX":"Balehubucks",
   "TAC":"The Advertising Currency",
   "SRG":"SRG",
   "N1D":"Number One Dime",
   "GLU":"Gluon",
   "DOBI":"DolphinBI",
   "ROOTS":"Root Project",
   "UTNP":"Universa",
   "Detector Token":"Detector Token",
   "WISH":"MyWish",
   "MOD":"Modum",
   "Crazycoin":"Crazycoin",
   "CAG":"Change",
   "CTR":"Centra Tech",
   "DACF":"CryptoFund",
   "MASS":"MASS",
   "CVCOIN":"Crypviser",
   "MOBI":"Mobius Network",
   "UKG":"Unikrn",
   "FUCK":"FuckToken",
   "IAC":"injii Access Coin",
   "NSU":"Nousplatform",
   "Token Stub":"Token Stub",
   "GBX":"Globitex",
   "MYST":"Mysterium Network",
   "ENG":"Enigma",
   "LGL":"SmartOne",
   "ROC":"Rasputin",
   "ETH":"Ether",
   "IGNIS":"Ignis",
   "Abab DAO":"Abab DAO",
   "Indigo Racing Organization":"Indigo Racing Organization",
   "SNTR":"Silent Notary",
   "XID":"Sphre AIR",
   "LA":"LAToken",
   "Zap":"Zap",
   "RKC":"Royal Kingdom Enterprise",
   "BBK":"BrickBlock",
   "CHI":"XAYA",
   "SYN":"Synapse",
   "SNT":"Status Network",
   "GZE":"GazeCoin",
   "BNK":"Bankera",
   "PLC":"DS Plus",
   "LC":"Lordmancer II",
   "RST":"REGA Risk Sharing",
   "PROOF":"Proof Token",
   "1WO":"1World",
   "VISTA":"Vista Fintech",
   "QASH":"QASH by Quoine",
   "TIE":"TIES.NETWORK",
   "HERO":"Hero",
   "PMT":"DAO Playmarket 2.0",
   "GGS":"Gilgam",
   "INS":"INS",
   "XRL":"Rialto",
   "CLD":"Cloud With Token",
   "BNT":"BANCOR Network",
   "GEE":"Geens",
   "WAX":"Worldwide Asset eXchange",
   "EVC":"EventChain",
   "The Opakeco Foundation":"The Opakeco Foundation",
   "BIG":"BIG",
   "HBT":"Heardbeats",
   "FLP":"Gameflip",
   "GUNS":"GeoFounders",
   "SMS":"Speed Mining Service",
   "SNM":"SONM Network",
   "B2B":"B2BX",
   "SPARC":"Sparc",
   "AUC":"AUcoin",
   "TEW":"TewTew",
   "BCS":"Bcshop",
   "CAC":"Casagram",
   "KCY":"KickCity",
   "Benja":"Benja",
   "DAY":"ChronoLogic",
   "HNT":"Honestis Network",
   "KRM":"Karma",
   "ONG":"onG.social",
   "IBA":"iBuildApp",
   "MRP":"Money Rebel",
   "PRG":"ParagonCoin",
   "IXT":"iXledger",
   "OPEN":"OPEN",
   "SCL":"Nexus Social Network",
   "ML":"Magnum Link",
   "JVY":"Javvy Crypto Solution",
   "MITO":"MITO",
   "PKT":"Playkey",
   "MBI":"Monster Byte Inc",
   "LOCI":"Loci Coin",
   "OMG":"OmiseGO",
   "NGC":"NAGA",
   "NPX":"Napoleon Capital",
   "NET":"Nimiq Network",
   "LTA":"Litra",
   "BSS":"IcoBasis",
   "MIV":"MakeItViral",
   "MRAToken":"MRAToken",
   "BBiller":"BBiller",
   "Varezhkino":"Varezhkino",
   "Charitize.click":"Charitize.click",
   "InkChain":"InkChain",
   "BETK":"BetKing",
   "Value Coin":"Value Coin",
   "Bitcache":"Bitcache",
   "CyberX":"CyberX",
   "ROYAL CAPITAL":"ROYAL CAPITAL",
   "BINARY":"Binary",
   "BTCsearch":"BTCsearch",
   "BLZ":"Bluzelle",
   "GFI":"WiFi Global",
   "ECH":"etherecash",
   "CAV":"Caviar",
   "QBE":"PodOne",
   "MRL":"Sibirian Maral",
   "THRT":"Thrive",
   "BEE":"The Bee Token",
   "KEY":"KeY' Token",
   "BRE":"BREM",
   "RPL":"Rocket Pool",
   "HD":"Human Discovery Platform",
   "BBI":"Beluga Pay",
   "MTIP":"MeeTip",
   "DTR":"tokens.net",
   "DAP":"dApp Builder",
   "ARKER":"Arker",
   "TKC":"Teky",
   "NRV":"Narrative",
   "GMR":"Gimmer",
   "WISE":"WISEPLAT",
   "ATHAU":"AutenticID",
   "ARRM":"ARRM",
   "TAI":"TokenAI",
   "SPICE":"SPiCE",
   "INK":"Ink Labs Foundation",
   "XVIA":"VIABET",
   "DEECOIN":"DropAnswer",
   "GTT":"GlobeTrotter",
   "BRICK":"Brixby",
   "CELL":"HashHive",
   "PCP":"PopulTrade",
   "DADI":"DADI",
   "STY":"STYRAS",
   "PHI":"Delphi Systems",
   "JBX":"JBOXCOIN",
   "XZN":"XZEN",
   "TIG":"Tigereum",
   "ACT":"ACT",
   "INSTAR":"Insights Network",
   "UCH":"Ucoin Cash",
   "CAMX":"CamX",
   "XUL":"ExsulCoin",
   "COINHEALTH":"CoinHealth",
   "KBR":"Kubera",
   "BOCC":"BOCC",
   "NHT":"NuHelp",
   "ECO-NAN":"ecoNAN",
   "CTX":"CarTaxi",
   "ENGZ":"Energizium",
   "LELE":"LELEcoin",
   "DSN":"DestiNeed",
   "AGC":"Agricoin",
   "AIBB":"AiBB",
   "ADDO":"Addocoin",
   "CL":"Coinlancer",
   "CROM":"CROMhub",
   "VCTR":"Vector",
   "LHC":"LHCrypto",
   "BAR":"Titanium Blockchain Infrastructure Services",
   "SGN":"Signals",
   "VLB":"VLB",
   "SPANK":"SpankChain",
   "XCPO":"CopiCo",
   "RFL":"RAFL",
   "SAND":"Sahara Chain",
   "TELE2":"TELE2Teleport",
   "WATER":"Water Token",
   "SALES":"SALES Token",
   "XBL":"Billionaire Token",
   "GIM":"The Gimli Project",
   "AHC":"Ahoolee",
   "NMR":"Numerai",
   "VSL":"vDice",
   "AGORA":"The Agora",
   "CLOUT":"Clout",
   "BEER":"BEER Token",
   "NXC":"Nexium",
   "NEUROMATION":"Neuromation",
   "RGB":"Colorico",
   "CRED":"Verify",
   "WPR":"WePower",
   "STF":"StopTheFakes",
   "MPK":"Impak Coin",
   "VXT":"Verto Exchange Token",
   "BAT":"Basic Attention",
   "SKR":"Skrilla",
   "IWT":"Integrative Wallet Token",
   "ODN":"Obsidian Platform",
   "MDT":"Measurable Data Token",
   "BUNT":"BUmbrella",
   "ETN":"Electroneum",
   "UET":"Useless Ethereum Token",
   "300":"300 Token",
   "WRC":"WorldCore",
   "SIFT":"Smart Investment Fund",
   "RTB":"ABCHAIN",
   "CCT":"Crystal Clear",
   "NBTK":"Nebeus",
   "BBD":"Blockchain Board of Derivatives",
   "GTC":"Game.com",
   "VTO":"VTCity",
   "PEX TOKEN":"PrimeEx Perpetual",
   "HME":"Holdme",
   "SUN":"SUNCOIN",
   "SMSTO":"SMSCHAIN",
   "KPY":"Kryptopy",
   "SGC":"Sudan Gold Coin",
   "ECHT":"eChat",
   "TSS":"Token Security Scheme",
   "WYS":"wysker",
   "BAX":"BABB",
   "VAC":"Vacuum",
   "GCTF":"GuideCTF",
   "LUST":"Lust",
   "IZX":"Izetex",
   "ROCK":"Ice Rock Mining",
   "HER":"Hearthy",
   "FCTF":"First Crypto ETF",
   "ACR":"Armor Ceramics",
   "ASTRN":"ASTRN ENERGY",
   "ROBOT COIN":"Robot Trading",
   "FNT":"FinTab",
   "PT":"Paytailor",
   "MF":"Moon Funding",
   "BNTY":"bounty0x",
   "EDU":"Open Source University",
   "MAS":"Mainasset",
   "RZM":"RAZOOM",
   "XSC":"Crowdstart Capital",
   "RMESH":"RightMesh",
   "ADP":"ADPUMP",
   "MUN":"Munchee",
   "TOM":"TomahawkCoin",
   "VPC":"VapeCoin",
   "SMX":"Smoke Exchange",
   "CDRT":"CREDEROOM",
   "CTD":"Cointed",
   "DFC":"Doft",
   "ESC":"Estate Coin",
   "REA":"REALISTO",
   "SPHTX":"SophiaTX",
   "NEU":"Neucoin",
   "FKX":"FortKnoxster",
   "STX":"Stox",
   "SWS":"Swisstok",
   "BIRD":"Birdchain",
   "AURA":"Aurora IDEX",
   "FUELD":"FUELDApp",
   "SOL":"Sola",
   "MAT":"MiniApps",
   "CYS":"CycloShieldCoin",
   "XSB":"StockBet",
   "ESG":"Esports Gold",
   "AQUA RIGHTS":"AQUA Rights",
   "AIRA":"Aira",
   "AIBP":"AIBanks",
   "SALT":"SALT",
   "GLXC":"GLX",
   "RQX":"Requitix",
   "MWT":"MWallet",
   "REV":"ICO Reveal",
   "KAIZEN COIN":"Kaizen Coin",
   "CRYPTONETIX":"Cryptonetix",
   "COINCROWD (XCC":"CoinCrowd",
   "WAN":"Wanchain",
   "HQT":"HyperQuant",
   "TFL":"TrueFlip",
   "XPA":"XPlay",
   "XT":"WCX",
   "SPNK":"Spank Coin",
   "NEUNET":"Neunet",
   "MED":"MediBloc",
   "PYP":"PayPro",
   "KMC":"KumoCoin",
   "IPFS":"IPFS",
   "SVC":"SilverCoin",
   "BCN":"Bytecoin",
   "GRID":"Grid+",
   "PRYZ":"Pryze",
   "NAU":"NAU",
   "AEON":"Aeon",
   "AION":"Aion",
   "ETC":"ETCWin",
   "WEEB":"The puff puff network",
   "APY":"Appay",
   "BBET":"ByteBet",
   "WISHCOIN":"Wishcoin",
   "ATK":"AML Bitcoin",
   "HEAL":"Etheal",
   "BOOMR":"LibLob",
   "BOPTI":"Bopti",
   "GMIT":"Game Machine",
   "STR":"STRIM Network",
   "HAZ":"Hazza",
   "BIQ":"BurstIQ",
   "HAMILTON":"Hamilton",
   "MDK":"MDK",
   "CCFC":"Crowd Crypto Fund",
   "BFY":"Bank4You",
   "DTH":"Dether",
   "MOI":"Moirai",
   "DIRTREX":"DirTrex",
   "CONNECTIUS":"Connectius",
   "BLOCKEX":"BlockEx",
   "BANK":"Global Crypto Bank",
   "UP":"UpToken",
   "XRJ":"RadJav",
   "SED":"LiveTree ADEPT",
   "WCMT":"CryptoMuseum",
   "PRNC":"PornCoin",
   "DIVM":"DIVM",
   "QAT":"Acquaint",
   "LYL":"LoyalCoin",
   "MLCN":"MilkCoin",
   "PSX":"Pundi X",
   "PARETO":"Pareto",
   "RDT":"Rate Date",
   "IQT":"IQuant Chain",
   "KWATT":"4NEW",
   "CERTIFICATE":"White Crypto City",
   "3DC":"Districts",
   "NCASH":"Nucleus",
   "BTCA":"Bitair",
   "LEDU":"LiveEdu",
   "VRTM":"Veritas Mining",
   "DBC":"Telegraf Money",
   "PTC":"Propthereum",
   "ASP":"ASSPACE",
   "SINT":"Sintez",
   "COV":"Covesting",
   "HION":"Handelion",
   "BERRY":"Rentberry",
   "ENJL":"Enjoy Life",
   "SINE":"Sine",
   "FAME":"BattleDrome",
   "MCAP":"MCAP",
   "BNB":"Binance",
   "PDC":"Project Decorum",
   "VERI":"Veritaseum",
   "NEWB":"Newbium",
   "APX":"APX",
   "VRP":"ProsenseLive",
   "DTB":"Augmentors",
   "BCY":"BitCrystals",
   "TKS":"Tokes",
   "B@":"Bankcoin",
   "UBIT":"UniBit",
   "UBER":"Uber Food",
   "YOYOW":"YOYOW",
   "QSP":"Quantstamp",
   "EMV":"Ethereum Movie Venture",
   "VALENT":"Covalent Coin",
   "VUP":"VuePay",
   "FAP":"FAPcoin",
   "ARCON":"PILIGRIM XXI",
   "JOT":"Jury.Online",
   "BCOIN":"BannerCoin",
   "REQ":"Request Network",
   "NSD":"NeuroSeed",
   "PLU":"Plutus",
   "QAU":"QUANTUM",
   "RNTB":"BitRent",
   "WHA":"WHA Project",
   "KRT":"KredX",
   "PRIV":"AnonHotels",
   "MNZ":"Monaize",
   "EBK":"EthBooks",
   "ATN":"Athena",
   "BPC":"Bitpark Coin",
   "MCX":"MCX",
   "APPC":"AppCoins",
   "BETM":"Betmaster",
   "RDCR":"Rosenbridge Digital",
   "RKST":"Rakugo",
   "SPF":"SportyFi",
   "SOFIN":"SOFIN",
   "RILTOKEN":"Rilcoin",
   "NUG":"Nuggets",
   "GMW":"GoMineWorld",
   "XBK":"Bondkick Syndicate",
   "PLM":"algo.land",
   "MDA":"Moeda",
   "R TOKEN":"R Pay",
   "HAC":"Hackspace",
   "R":"Revain",
   "NIO":"Autonio",
   "KARB":"Karbon",
   "LOTC":"CoinBet",
   "REF":"RefToken",
   "HPC":"Hungry Panda Games",
   "NTRY":"Notary",
   "TBX":"TensorBox",
   "RIYA":"Etheriya",
   "LEWT":"Lewt",
   "FUN":"FunFair",
   "LIKE":"LIKE",
   "JNETCOIN":"jNet1",
   "SIO":"SpaceICO",
   "TMC":"TeamCoin",
   "SWAY":"SkyWay",
   "MRK":"MARK.SPACE",
   "PING":"CryptoPing",
   "DGM":"Digmus",
   "COPY":"CryptoCopy",
   "HLP":"HealPoint",
   "AFF":"Affchain",
   "SGA":"SGA Consulting",
   "WYR":"WYRIFY",
   "GLA":"Gladius",
   "DES":"Decentralized Escrow",
   "TURTL":"World Turtle Coin",
   "ATXT":"Alttradex",
   "X8X":"X8 Currency",
   "FDX":"FidentiaX",
   "PITIS":"Pitis Coin",
   "CREDO":"BitBounce",
   "HXT":"Hextracoin",
   "RAO":"RadioYo",
   "HLN":"Hellenium",
   "PLX":"PlexCoin",
   "LALA":"LaLa World",
   "WIC":"WiC",
   "DIX":"Eagle Project",
   "ZET":"ZEUS",
   "DLT":"Agrello",
   "CHARG":"Charg",
   "PCL":"Peculium",
   "AKM":"AKM GLOBAL",
   "DOPA":"Dopamine",
   "SYC":"SynchroLife",
   "IZI":"Izibits",
   "DEK":"DeckSwap",
   "ASTRO":"Astronaut",
   "FSVT":"Forty Seven Bank",
   "CCO":"ccore",
   "INSP":"Inspeer",
   "CFT":"CryptoForecast",
   "VPY":"VanillaPlay",
   "W3C":"W3coins",
   "ALTOCAR":"Altocar",
   "TFX":"TrafficX",
   "EVM":"Evareium",
   "BID":"Blockbid",
   "BCDT":"BCDiploma",
   "CRX":"Carblox",
   "BSK":"Brisk Pass",
   "FNU":"Fiinu",
   "MEGAX":"Mega X",
   "TRV":"Trive",
   "ARBI":"Arbi",
   "ANAT":"Anacoin",
   "SAAV":"SAAVcoin",
   "OKF":"Kiking off movie",
   "CSC":"CryptoSoft",
   "BTBC":"BitBase",
   "MBT":"Multibot",
   "UCASH":"U.CASH",
   "ADT":"adToken",
   "BRAT":"BRAT",
   "RI":"Fundaria",
   "\u200bCYR\u200b":"Cypher",
   "ZENGOLD":"ZenGold",
   "MAGE":"Ethernal Heroes",
   "ZEMPA":"Zempa",
   "E11":"Experimental",
   "TRAC":"OriginTrail",
   "MER":"Darcrus",
   "HQX":"HOQU",
   "SHINE":"ShineCoin",
   "IDH":"indaHash",
   "ARTE":"Artemine",
   "XET":"Cryptex Network",
   "BTCF":"BitConscious Foundation",
   "CPROP":"CPROP",
   "FORS":"Easyfast",
   "FLN":"folio.ninja",
   "DROP":"Droplex",
   "MPRM":"Imperium",
   "BCPT":"BlockMason",
   "SOLID":"Solidified",
   "YCN":"YohoCube",
   "EDIS":"eTardis",
   "BTR":"Boosteroid",
   "STAT":"Statercoin",
   "T8COIN":"T8Coin",
   "RUSTBITS":"RUSTBITS",
   "RECOIN":"reOrder",
   "SNG":"Sinergia Blockchain",
   "ETHD":"ETH Lottery",
   "TRDX":"TradeX",
   "KAPU":"Kapu",
   "BBC":"Battle Ball",
   "LRC":"Loopring",
   "CBET":"CrazyBET",
   "EGH":"EcoGreenHouse",
   "SSIO":"sexService.io",
   "CMT":"Cybermiles",
   "MVN":"Mavin",
   "BIX":"Bibox",
   "HHT":"HealthHeart",
   "BDG":"BitDegree",
   "CHSB":"SwissBorg",
   "SLT":"Smartlands",
   "TDN":"TrueDonate",
   "CPM":"Blockchain Programmatic Corporation",
   "SISA":"SISA",
   "BITCOMO":"Bitcomo",
   "WLTX":"Waltix",
   "CRUCOINS":"CruCoins",
   "DRGN":"Dragonchain",
   "PST":"Planes Cloud",
   "ZRC":"ZrCoin",
   "GIT MONEY":"Git Money",
   "WGR":"Wagerr",
   "LGP":"LangPie",
   "BIO":"BioCoin",
   "TRUEBIT":"TrueBit",
   "RCN":"Readcoin",
   "ARNA GEN":"ARNA Panacea",
   "INCNT":"Incent",
   "BIT INDIA":"Bitindia",
   "ART":"Maecenas",
   "SWH":"SwishCoin",
   "DMARKET TOKEN":"DMarket",
   "WINGS":"Wings",
   "ECOB":"EcoBit",
   "HIVEMIND":"Hivemind",
   "MGO":"MobileGo",
   "LIBERSTAD":"Liberstad",
   "AUN":"Authoreon",
   "CAT":"BitClave",
   "RC":"Hash Rush",
   "SNP":"SnapUp",
   "DATA":"Streamr",
   "TM-TAG":"TransActive Grid",
   "BCAP":"Blockchain Capital Fund",
   "CABS":"CyberTrust",
   "BGT":"Bugu",
   "TM-BOARDROOM":"Boardroom",
   "SRE":"SmartRE",
   "CMS":"COMSA",
   "VEGA TOKEN":"Vega",
   "DAT":"Datum",
   "FRD":"Farad",
   "\u0126":"Hong Coin",
   "ZPHR":"Zephyr",
   "ZON":"Horyzon",
   "ZNA":"Zenome",
   "ZDR":"Zloadr",
   "ZBC":"BlockStarter",
   "YEAR":"Open Longevity",
   "XXX":"Airporn",
   "XTO":"Tao Network",
   "XPO":"XRONOS",
   "XRED":"XRED",
   "XIC":"Index Coin",
   "XDN":"DigitalNote",
   "WWAM":"WWAM",
   "WTN":"WETEN",
   "WST":"WesterosToken",
   "WORD":"WORDCOIN",
   "VIU":"Viuly",
   "VCN":"Ventured Network",
   "UFR":"Upfiring",
   "TTT":"Tap Project",
   "TRM2":"TerraMiner",
   "TMS":"Tremissis",
   "FORCE":"TriForce Tokens",
   "SXP":"Selfpay",
   "SUB":"Substratum",
   "STQ":"Storiqa",
   "SND":"SandCoin",
   "SHEL":"Cove Identity",
   "SCOIN":"Salt Coin",
   "RBM":"Robomed Network",
   "QTUM":"QTUM",
   "PZM":"Prizm",
   "PONS":"Ponsumer",
   "POLL":"ClearPoll",
   "POINTS":"Chain of Points",
   "NWAS":"NWA",
   "NTC":"Natcoin",
   "NOCTA":"Nocta",
   "MTRX":"Matrexa",
   "MSP":"Mothership",
   "MOOSE":"Moosecoin",
   "MIRO":"Mirocana",
   "METAX":"Meta Exchange",
   "LUX":"Luxico",
   "LSC":"Lescoin",
   "JNT":"Jibrel Network",
   "JC":"Jesus Coin",
   "INC":"InChain",
   "IMPS":"Impulse",
   "HT":"HUNT.BET",
   "HEDGE":"Hedge.pro",
   "GW":"Genesis World",
   "GUESS":"peerguess",
   "GRG":"RigoBlock",
   "GOODWILL":"Goodwill Protocol",
   "GODZ":"Godzillion",
   "GMP":"Global Metrology Project",
   "GJC":"Global Jobcoin",
   "GFL":"Golden Fleece",
   "GBST":"Global Business System",
   "FUPOOF":"Fupoof Coin",
   "ETALON":"EVO",
   "ETP":"Metaverse",
   "ETCH":"Etch",
   "ESR":"ESR Wallet",
   "ERS":"Eros",
   "EQC":"Qchain",
   "EMP":"Empire Card",
   "DSR":"Daseron",
   "DSLK":"DarkSilk",
   "DNNT":"NomadCOIN",
   "DME":"Dome Platform",
   "DCS":"DeClouds",
   "DCBT":"DiceyBit",
   "DARF":"DARFChain",
   "DALA":"Wala Financial Platform",
   "CTC":"CostaCoin",
   "CRTM":"Cryptum",
   "CRPT":"Crypterium",
   "QRP":"Cryptics",
   "TRIA":"CombiCoin",
   "CLS":"Coinless",
   "CDR":"CoinDrive",
   "CBI":"Customizable Basic Income",
   "BTRM":"Betrium",
   "BOTCOIN":"Bitcoin Lottery",
   "BOK":"Blocksale",
   "AXION":"AxionV",
   "ATM":"FlipCoin",
   "ARENACOIN":"ARena Space",
   "ALLY":"TripAlly",
   "ALLOY":"ALLOY",
   "ALIS":"Alis",
   "ALDO":"Aldoin",
   "KRPT":"Kript",
   "WAND":"Wandx",
   "VB":"Vaultbank",
   "MEDX":"MedCredits",
   "GREEN":"Greeneum",
   "FLIXX":"Flixxo",
   "FLIP":"BitFlip",
   "BON":"Bonpay",
   "PRTS":"Protos",
   "TRIP":"Trippki",
   "PPR":"Papyrus",
   "NOX":"Nitro",
   "LCD":"Lucyd",
   "DIVX":"The Divi Project",
   "VLS":"VALUS",
   "UQC":"UQUID Eco System",
   "SWM":"Swarm Fund",
   "RFR":"Refereum",
   "REM":"REMME",
   "MTL":"Metal",
   "MANA":"Decentraland",
   "LEV":"Leverj",
   "H2O":"HydroMiner",
   "DGZ":"Dogezer",
   "COP":"CopPay",
   "BKX":"BANKEX",
   "AMMBR":"Ammbr",
   "ACF":"ArtCoin Fund",
   "ROSECOIN":"Rosecode",
   "CPAY":"CryptoPay",
   "SSH":"StreamSpace",
   "EZM":"EZMarket",
   "DOT":"Polkadot",
   "LYDIAN":"Lydian",
   "AMM":"MicroMoney",
   "ABJ":"AbjCoin",
   "PEER":"Peerity",
   "EDO":"Eidoo",
   "ZONTO":"Zonto World",
   "ZNT":"OpenZen",
   "ZIBER":"Ziber",
   "ZEN":"Zen Protocol",
   "ZEC":"Zcash",
   "YUP":"Crowdholding",
   "XUC":"Exchange Union",
   "XRP":"Ripple",
   "XMR":"Monero",
   "XLC":"LeviarCoin",
   "XAUR":"Xaurum Gamma",
   "XEM":"NEM",
   "XCP":"Counterparty",
   "XCJ":"CoinJob",
   "XAI":"AICoin",
   "WTT":"Giga Watt",
   "WOLK":"Wolk",
   "WIZ":"CrowdWiz",
   "WILD":"Wild Crypto",
   "WAVES":"Waves",
   "VOISE":"VOISE",
   "VOTES":"Votes",
   "VIP":"The Legends Room",
   "VIB":"Viberate",
   "VENT":"Veredictum",
   "VEE":"BLOCKv",
   "VCB":"Virtual Cash Back",
   "UTK":"UTRUST",
   "USDT":"Tether",
   "UMC":"Umbrella Coin",
   "UBQ":"Ubiq",
   "TRST":"WeTrust",
   "TRIBE":"TribeToken",
   "TOREKABU":"Bitgirls",
   "TNT":"Tierion",
   "TMSIKOBA":"Sikoba",
   "TMN":"Transmission",
   "TMBITSQUARE":"Bitsquare",
   "TKZ":"Tokenza",
   "TKR":"Trackr",
   "XTZ":"Tezos",
   "PAY":"TenX",
   "TEIOS":"Mill of Blood",
   "TAAS":"TaaS",
   "SUR":"Suretly",
   "STU":"bitJob",
   "XLM":"Stellar",
   "STORM":"Storm",
   "STMG":"StartMining",
   "STEEM":"Steem",
   "A2A":"STeX Exchange",
   "STRC":"Back To Earth",
   "SPRS":"Spheris",
   "SXDT":"Spectre",
   "SNOV":"Snovian.Space",
   "SNK":"Sosnovkino",
   "SNGLS":"SingularDTV",
   "SNC":"SunContract",
   "SMOKE":"Smoke.Network",
   "SMNX":"Solomon Exchange",
   "SKIN":"SKinCoin",
   "STORJ":"Storj",
   "SIG":"Spectiv",
   "SHIFT":"Shift",
   "SGG":"StuffGoGo",
   "SFX":"Soferox",
   "SENSE":"SENSE",
   "SDAO":"Solar DAO",
   "SC":"Sia",
   "SAN":"Santiment",
   "FIL":"Filecoin",
   "RYZ":"Anryze",
   "RVT":"Rivetz",
   "RSK":"Rootstock",
   "DIP":"Etherisc",
   "RPX":"Red Pulse",
   "ROK":"Rockchain",
   "RLT":"REALT",
   "RLC":"iExec",
   "RHT":"Rhea",
   "REX":"Imbrex",
   "REST":"Relest",
   "REP":"Augur",
   "REI":"ReiDAO",
   "REAL":"REAL",
   "RCH":"RICH Coin",
   "RCC":"Reality Clash",
   "RBLX":"Rublix",
   "QVT":"Qvolta",
   "QRL":"Quantum Resistant",
   "PYN":"Paycent",
   "PYLNT":"Pylon Network",
   "PTOY":"Patientory",
   "PTM":"Potentiam",
   "PRE":"Presearch",
   "PSLFX":"PassLfix",
   "PRIX":"Privatix",
   "PQT":"PAquarium",
   "PPP":"PayPie",
   "POWR":"Power Ledger",
   "POE":"Po.et",
   "PLR":"Pillar",
   "PLBT":"Polybius",
   "PIX":"Lampix",
   "PGL":"Prospectors Gold",
   "PFR":"Payfair",
   "PPY":"Peerplays",
   "PEERBANKS":"PeerBanks",
   "PBL":"Publica",
   "PAL":"Pally",
   "OXY":"Oxycoin",
   "OX":"OX Fina",
   "OWL":"Minerva",
   "OTX":"Octanox",
   "OROC":"Orocrypt",
   "OPT":"Opus",
   "OPL":"OnPlace",
   "OMNI":"Omni",
   "OGC":"OneGram",
   "ODMC":"ODMCoin",
   "OAX":"openANX",
   "NVST":"NVO",
   "NTZ":"Acebusters",
   "NTO":"Fujinto",
   "NRN":"doc.ai",
   "NMC":"NameCoin",
   "NIMFA":"Nimfamoney",
   "NEBL":"Neblio",
   "NDC":"NEVERDIE",
   "NATV":"Native Currency",
   "MYB":"MyBit",
   "MTH":"Monetha",
   "MT":"MoneyTech",
   "MRV":"Macroverse",
   "MNY":"Monkey Capital",
   "MNTP":"GOLDMINT",
   "MLN":"Melon",
   "MIT":"Intellisys",
   "MFG":"SyncFab",
   "MEDI":"MediBond",
   "MCO":"Monaco",
   "MUSIC":"Musicoins",
   "MAID":"MaidSafe",
   "LUN":"Lunyr",
   "LSK":"Lisk",
   "LOOK":"LookRev",
   "LKK":"Lykke",
   "LIVE":"Live Stars",
   "LIF":"Winding Tree",
   "TIME":"ChronoBank",
   "LEND":"EthLend",
   "LEAP":"Leap",
   "LBC":"LibraryCredits",
   "LATX":"Latium",
   "KNOWS":"KNOWS",
   "KNC":"KyberNetwork",
   "KMD":"Komodo",
   "KIN":"Kin",
   "KEX":"KexCoin",
   "KCN":"Kencoin",
   "KICK":"KICKICO",
   "KBT":"Kibo",
   "JM":"Justmake",
   "JDC":"Just Dating Site",
   "JCR":"Jincor",
   "ITT":"Intelligent Trading Foundation",
   "INXT":"Internxt",
   "INTL":"Intellium",
   "INDI":"INDICOIN",
   "IND":"Indorse",
   "IML":"IMMLA",
   "ICX":"ICON",
   "ICN":"Iconomi",
   "HYBRID":"Internet of Coins",
   "HVN":"Hive Project",
   "HOME":"HomeToken",
   "HMQ":"Humaniq",
   "HKN":"Hacken",
   "HKG":"Hacker Gold",
   "HIRE":"HireMatch",
   "HGT":"HelloGold",
   "GZR":"Gizer",
   "GVT":"Genesis Vision",
   "GUP":"Matchpool",
   "EMOT":"Sentigragh",
   "GNT":"Golem",
   "GNO":"Gnosis",
   "GALA":"Galactikka",
   "FYP":"Flyp.me",
   "FUEL":"Etherparty",
   "FND":"FundRequest",
   "FLU":"Fluence",
   "IFT":"investFeed",
   "EVX":"Everex",
   "ETT":"EncryptoTel",
   "ETBS":"Ethbits",
   "ESZ":"EtherSportz",
   "ERO":"ErosCoin",
   "EQ":"EQUI",
   "EPY":"Emphy",
   "EOS":"EOS",
   "EON":"Exscudo",
   "ENT":"Hut34 Project",
   "ENJ":"Enjin Coin",
   "MBRS":"Embermine",
   "EDG":"Edgeless",
   "EAVE":"EAVE",
   "E4ROW":"E4ROW",
   "DRT":"DomRaider",
   "DRPU":"DCORP",
   "DOVU":"DOVU",
   "DNT":"district0x",
   "DNA":"Encrypgen",
   "HST":"Horizon State",
   "DIM":"DIMCOIN",
   "DGPT":"DigiPulse",
   "DGD":"DigixDAO",
   "DFBT":"DentalFix",
   "DENT":"Dent",
   "DDF":"Digital Developers Fund",
   "DCR":"Decred",
   "DCN":"Dentacoin",
   "DCL":"DisLedger",
   "DEB":"Debitum Network",
   "DBET":"Decent.bet",
   "DASH":"Dash",
   "CVC":"Civic",
   "CSNO":"BitDice",
   "STA":"Starta",
   "CREA":"CreativeCoin",
   "COSS":"COSS",
   "COB":"COBINHOOD",
   "CO2":"Climatecoin",
   "CNX":"Cryptonex",
   "CND":"Cindicator",
   "CMP":"Compcoin",
   "CLT":"CoinLoan",
   "CIF":"Crypto Improvement Fund",
   "CFI":"Cofound.it",
   "CASH":"Cash Poker Pro",
   "C20":"Crypto20",
   "GBYTE":"Byteball",
   "BUZZ":"Redemption Technologies",
   "BTS":"BitShares",
   "BTN":"BETNetwork",
   "BRT":"Berith",
   "BQX":"Bitquence",
   "BPL":"Blockpool",
   "BOU":"Boul\u00e9",
   "BOS":"BOScoin",
   "BN":"bitNatura",
   "BLOCKPAY":"Blockpay",
   "BKRX":"BlockRx",
   "BITSD":"Bits Digit",
   "BET":"DAO.casino",
   "BEQB":"BEEQB",
   "BCDN":"BlockCDN",
   "BAC":"LakeBanker",
   "B1":"BeOne",
   "AVT":"Aventus",
   "AUT":"Autoria",
   "ATOM":"Cosmos",
   "ATB":"ATB coin",
   "ARNA":"Arena",
   "ARN":"Aeron",
   "ARK":"Ark",
   "APPX":"AppTrade",
   "ANT":"Aragon",
   "GAS":"Antshares",
   "AMP":"Synereo",
   "AMB":"Ambrosus",
   "AKASHA":"Akasha",
   "AIR":"AirToken",
   "AHT":"Bowhead Health",
   "AE":"aeternity",
   "ADX":"AdEx",
   "ADST":"Adshares",
   "ADA":"Cardano",
   "ABS":"CryptoABS",
   "7YPE":"7ype",
   "21MCOIN":"21 Million",
   "1ST":"FirstBlood"
}